;London Area Control
LON_CTR:London Control:123.900:L:9:LON:CTR:-:-:0301:0377:N051.32.26.870:W002.43.29.830
LON_SC_CTR:London Control:132.600:LSC:8:LON:CTR:-:-:0301:0377:N051.28.58.203:E000.02.20.411
LON_SC_CTR:London Control:132.600:LSC:8:LON-SC:CTR:-:-:0301:0377:N051.28.58.203:E000.02.20.411
LON_N_CTR:London Control:133.700:LN:N:LON:CTR:-:-:0501:0577:N053.39.29.755:W001.07.20.927
LON_W_CTR:London Control:126.070:LW:W:LON:CTR:-:-:0301:0377:N051.18.21.496:W004.09.51.334
LON_C_CTR:London Control:127.100:LC:C:LON:CTR:-:-:0301:0377:N052.07.30.663:W000.03.23.581
LON_E_CTR:London Control:121.220:LE:E:LON:CTR:-:-:0301:0377:N051.50.59.526:E001.35.59.281
LON_S_CTR:London Control:129.420:LS:S:LON:CTR:-:-:0301:0377:N051.12.49.331:E000.03.49.130
LON_D_CTR:London Control:134.900:LD:D:LON:CTR:-:-:0301:0377:N051.09.53.050:E000.33.14.793

EGTT_INFO:London Information:124.600:LI:C:EGTT:CTR:-:-:1177:1177
EGTT_INFO:London Information:124.600:LI:C:EGTT:FSS:-:-:1177:1177

;London Terminal Control
LTC_NW_CTR:London Control:121.270:TCNW:T:LTC:CTR:-:-:0301:0377:N051.41.16.486:W000.39.43.696
LTC_NW_CTR:London Control:121.270:TCNW:T:LTC-NW:CTR:-:-:0301:0377:N051.41.16.486:W000.39.43.696
LTC_NE_CTR:London Control:118.820:TCNE:T:LTC:CTR:-:-:0301:0377:N051.40.58.659:E000.09.47.389
LTC_NE_CTR:London Control:118.820:TCNE:T:LTC-NE:CTR:-:-:0301:0377:N051.40.58.659:E000.09.47.389
LTC_N_CTR:London Control:119.770:TCN:T:LTC:CTR:-:-:0301:0377:N051.44.35.639:W000.05.11.552
LTC_SW_CTR:London Control:133.170:TCSW:T:LTC:CTR:-:-:0301:0377:N051.12.06.055:W000.38.07.959
LTC_SW_CTR:London Control:133.170:TCSW:T:LTC-SW:CTR:-:-:0301:0377:N051.12.06.055:W000.38.07.959
LTC_SE_CTR:London Control:120.520:TCSE:T:LTC:CTR:-:-:0301:0377:N051.19.14.860:E000.00.59.623
LTC_SE_CTR:London Control:120.520:TCSE:T:LTC-SE:CTR:-:-:0301:0377:N051.19.14.860:E000.00.59.623
LTC_S_CTR:London Control:134.120:TCS:T:LTC:CTR:-:-:0301:0377:N051.11.19.493:W000.11.26.423

;Prestwick W2 LAG (MAN)
MAN_CTR:Scottish Control:118.770:M:5:MAN:CTR:-:-:0501:0577:N053.23.30.998:W003.08.03.998
MAN_E_CTR:Scottish Control:133.800:ME:6:MAN:CTR:-:-:0501:0577:N053.28.29.359:W001.00.06.210
MAN_W_CTR:Scottish Control:128.050:MW:5:MAN:CTR:-:-:0501:0577:N053.23.30.998:W003.08.03.998

;Scottish Area Control
SCO_CTR:Scottish Control:135.520:S:A:SCO:CTR:-:-:3601:3632:N055.37.30.606:E000.19.25.226:N059.14.08.869:W003.47.12.855:N055.52.36.972:W006.07.43.277
SCO_E_CTR:Scottish Control:121.320:SE:E:SCO:CTR:-:-:3601:3632:N055.37.30.606:E000.19.25.226:N059.14.08.869:W003.47.12.855
SCO_WD_CTR:Scottish Control:133.200:SWD:W:SCO:CTR:-:-:3601:3632:N055.52.36.972:W006.07.43.277
SCO_W_CTR:Scottish Control:132.720:SW:W:SCO:CTR:-:-:3601:3632:N056.36.13.135:W007.42.49.507
SCO_R_CTR:Scottish Control:129.100:SR:W:SCO:CTR:-:-:3601:3632:N054.58.45.778:W006.54.17.087
SCO_D_CTR:Scottish Control:135.850:SD:W:SCO:CTR:-:-:3601:3632:N055.17.38.945:W003.37.12.972

STC_CTR:Scottish Control:124.820:ST:S:STC:CTR:-:-:3601:3632:N055.16.29.156:W003.33.52.077
STC_A_CTR:Scottish Control:123.770:STA:W:STC:CTR:-:-:3601:3632:N054.30.47.251:W005.08.27.652
STC_W_CTR:Scottish Control:121.370:STW:S:STC:CTR:-:-:3601:3632:N055.24.24.008:W004.15.11.697
STC_E_CTR:Scottish Control:130.970:STE:S:STC:CTR:-:-:3601:3632:N055.10.43.810:W003.01.43.483

EGPX_INFO:Scottish Information:119.870:SI:A:EGPX:FSS:-:-:7401:7401
EGPX_INFO:Scottish Information:119.870:SI:A:EGPX:CTR:-:-:7401:7401

;Mentor
LON_M_CTR:London Control:199.998:LM:L:LON:CTR:-:-::
LON-M_CTR:London Control:199.998:LM:L:LON-M:CTR:-:-::
LTC_M_CTR:London Control:199.998:LM:L:LTC:CTR:-:-::
LTC-M_CTR:London Control:199.998:LM:L:LTC-M:CTR:-:-::

MAN_M_CTR:Scottish Control:199.998:LM:L:MAN:CTR:-:-::
MAN-M_CTR:Scottish Control:199.998:LM:L:MAN-M:CTR:-:-::

SCO_M_CTR:Scottish Control:199.998:SM:L:SCO:CTR:-:-::
SCO-M_CTR:Scottish Control:199.998:SM:L:SCO-M:CTR:-:-::
STC_M_CTR:London Control:199.998:SM:L:SCO:CTR:-:-::
STC-M_CTR:London Control:199.998:SM:L:SCO-M:CTR:-:-::

;Military
EGVV_CTR:Swanwick Military:135.150:VV:M:EGVV:CTR:SWAN:MIL:6401:6457
EGVV_L_CTR:Swanwick Military:127.450:VVL:M:EGVV:CTR:SWAN-L:MIL:6401:6457
EGWD_CTR:London Military:135.270:WD:M:EGWD:CTR:LON:MIL:6101:6157
EGQQ_CTR:Scottish Military:134.300:QQ:M:EGQQ:CTR:SCO:MIL:4610:4667