Coastline 4015170 N052.01.28.701 W004.59.59.755
 N052.01.28.701 W005.00.00.000
  
Coastline 4015170 N052.32.55.919 W003.59.59.593
 N052.32.43.243 W004.00.36.559
 N052.32.43.243 W004.01.24.078
 N052.32.28.453 W004.02.35.894
 N052.32.28.453 W004.04.05.661
 N052.32.45.358 W004.04.33.118
 N052.33.18.097 W004.04.51.071
 N052.33.26.543 W004.05.02.689
 N052.33.36.046 W004.05.02.689
 N052.33.39.218 W004.05.09.025
 N052.33.47.664 W004.05.09.025
 N052.34.00.340 W004.05.21.697
 N052.34.15.116 W004.05.26.977
 N052.34.51.028 W004.06.09.220
 N052.34.59.474 W004.06.09.220
 N052.35.12.149 W004.06.20.838
 N052.35.18.480 W004.06.33.508
 N052.35.36.443 W004.06.38.790
 N052.36.15.513 W004.07.32.650
 N052.36.20.800 W004.07.27.368
 N052.36.22.901 W004.07.30.536
 N052.36.20.800 W004.07.45.321
 N052.36.27.131 W004.07.50.603
 N052.36.51.424 W004.07.51.662
 N052.36.59.870 W004.07.38.985
 N052.37.12.545 W004.07.38.985
 N052.37.14.647 W004.07.32.650
 N052.37.24.164 W004.07.33.708
 N052.37.27.322 W004.07.27.368
 N052.37.42.112 W004.07.27.368
 N052.37.53.730 W004.07.14.696
 N052.38.24.355 W004.07.09.414
 N052.38.32.801 W004.06.56.744
 N052.38.50.763 W004.06.51.462
 N052.39.11.884 W004.06.27.174
 N052.39.21.388 W004.06.27.174
 N052.39.29.833 W004.06.09.220
 N052.39.39.337 W004.06.09.220
 N052.39.50.955 W004.05.51.267
 N052.40.02.573 W004.05.44.931
 N052.40.16.292 W004.05.17.474
 N052.40.30.025 W004.04.44.735
 N052.40.46.930 W004.04.29.950
 N052.41.17.554 W004.03.27.642
 N052.42.27.249 W004.03.32.922
 N052.42.35.695 W004.03.26.586
 N052.42.55.772 W004.02.53.848
 N052.42.48.370 W004.02.50.679
 N052.42.32.536 W004.03.14.970
 N052.42.20.918 W004.03.14.970
 N052.42.13.530 W004.02.53.848
 N052.42.21.975 W004.02.17.942
 N052.42.27.249 W004.02.09.493
 N052.42.35.695 W004.02.14.770
 N052.42.48.370 W004.02.15.829
 N052.42.55.772 W004.01.54.708
 N052.42.52.600 W004.01.35.694
 N052.43.13.721 W004.01.06.124
 N052.43.13.721 W004.00.54.511
 N052.43.04.218 W004.00.48.172
 N052.43.19.008 W004.00.30.218
 N052.43.22.167 W003.59.59.593
  
Coastline 4015170 N052.31.40.937 W003.59.59.593
 N052.31.39.879 W004.00.18.605
 N052.31.21.931 W004.00.54.511
 N052.31.25.089 W004.01.48.372
 N052.31.19.816 W004.01.59.988
 N052.31.19.816 W004.02.30.614
 N052.31.38.822 W004.02.50.679
 N052.31.48.325 W004.02.51.735
 N052.32.04.173 W004.03.11.801
 N052.31.53.612 W004.03.32.922
 N052.31.41.994 W004.03.39.258
 N052.31.12.427 W004.03.39.258
 N052.30.59.752 W004.03.26.586
 N052.30.15.395 W004.03.27.642
 N052.30.12.222 W004.03.21.306
 N052.28.42.450 W004.03.21.306
 N052.28.37.177 W004.03.29.755
 N052.28.32.947 W004.03.45.594
 N052.28.14.998 W004.04.02.492
 N052.27.27.469 W004.04.33.118
 N052.27.00.016 W004.04.39.454
 N052.26.32.564 W004.05.02.689
 N052.25.48.207 W004.04.57.407
 N052.25.12.296 W004.05.21.697
 N052.25.02.792 W004.05.15.361
 N052.24.54.347 W004.05.33.313
 N052.24.20.550 W004.05.38.595
 N052.24.05.773 W004.05.26.977
 N052.23.50.983 W004.05.26.977
 N052.23.44.638 W004.05.39.649
 N052.23.23.517 W004.05.57.602
 N052.23.15.071 W004.05.56.548
 N052.22.39.160 W004.06.33.508
 N052.22.18.039 W004.06.38.790
 N052.21.42.141 W004.07.09.414
 N052.20.27.159 W004.07.33.708
 N052.20.06.038 W004.08.09.614
 N052.19.23.795 W004.08.21.227
 N052.19.05.847 W004.08.39.181
 N052.18.57.387 W004.09.03.475
 N052.18.41.553 W004.09.08.752
 N052.18.29.935 W004.09.21.427
 N052.18.20.432 W004.09.50.998
 N052.17.47.693 W004.10.02.610
 N052.17.37.132 W004.10.18.455
 N052.17.28.686 W004.10.59.643
 N052.17.21.284 W004.11.09.146
 N052.16.47.487 W004.11.20.764
 N052.16.39.042 W004.11.27.100
 N052.16.24.265 W004.11.56.671
 N052.15.53.627 W004.12.14.623
 N052.15.46.239 W004.12.29.408
 N052.15.45.181 W004.12.45.249
 N052.15.39.908 W004.12.48.416
 N052.15.40.965 W004.12.53.698
 N052.14.55.551 W004.14.29.800
 N052.14.52.378 W004.15.24.718
 N052.14.12.251 W004.16.44.980
 N052.14.02.747 W004.16.51.316
 N052.13.40.569 W004.17.35.671
 N052.13.40.569 W004.17.48.343
 N052.13.30.008 W004.18.09.464
 N052.13.23.677 W004.18.09.464
 N052.12.43.536 W004.19.36.062
 N052.12.49.881 W004.20.11.969
 N052.12.34.033 W004.20.42.593
 N052.12.34.033 W004.21.05.828
 N052.12.44.594 W004.21.26.949
 N052.12.50.938 W004.21.26.949
 N052.12.54.097 W004.21.21.668
 N052.13.04.657 W004.21.42.790
 N052.12.58.326 W004.22.35.594
 N052.12.47.766 W004.22.56.716
 N052.12.25.587 W004.23.06.219
 N052.12.05.523 W004.23.50.574
 N052.11.47.574 W004.24.03.252
 N052.11.40.172 W004.24.24.373
 N052.11.29.612 W004.24.26.481
 N052.11.31.727 W004.24.42.325
 N052.11.17.994 W004.25.08.728
 N052.10.53.714 W004.25.26.681
 N052.10.52.657 W004.25.36.186
 N052.10.35.751 W004.25.57.305
 N052.10.27.306 W004.26.33.212
 N052.10.20.975 W004.26.33.212
 N052.10.10.414 W004.26.47.997
 N052.10.10.414 W004.27.00.669
 N052.10.04.070 W004.27.12.287
 N052.10.07.242 W004.27.30.239
 N052.10.04.070 W004.27.41.857
 N052.10.06.184 W004.27.51.360
 N052.10.13.573 W004.27.54.529
 N052.10.09.357 W004.28.14.595
 N052.10.03.012 W004.28.09.314
 N052.09.38.732 W004.28.14.595
 N052.09.22.885 W004.29.06.342
 N052.09.14.439 W004.29.09.509
 N052.09.02.821 W004.29.32.744
 N052.08.51.203 W004.29.32.744
 N052.08.37.470 W004.29.48.585
 N052.08.25.852 W004.30.18.155
 N052.08.01.572 W004.31.18.355
 N052.08.01.572 W004.31.54.261
 N052.08.07.903 W004.32.41.784
 N052.08.01.572 W004.32.48.120
 N052.08.12.133 W004.32.57.623
 N052.08.23.751 W004.33.27.194
 N052.08.34.311 W004.33.35.644
 N052.08.37.470 W004.34.24.221
 N052.08.22.693 W004.34.53.792
 N052.08.13.190 W004.35.06.464
 N052.08.13.190 W004.35.24.418
 N052.08.19.521 W004.35.42.370
 N052.08.16.349 W004.36.00.324
 N052.08.25.852 W004.36.18.276
 N052.08.16.349 W004.37.05.801
 N052.08.16.349 W004.38.35.566
 N052.08.12.133 W004.38.45.071
 N052.08.02.629 W004.38.38.735
 N052.07.58.400 W004.38.48.243
 N052.08.01.572 W004.39.36.820
 N052.07.40.451 W004.40.42.297
 N052.07.46.782 W004.41.06.587
 N052.07.41.508 W004.41.21.372
 N052.07.15.100 W004.41.26.652
 N052.07.11.927 W004.41.32.988
 N052.06.36.030 W004.41.15.036
 N052.06.18.067 W004.41.21.372
 N052.05.56.946 W004.40.32.794
 N052.05.45.328 W004.40.32.794
 N052.05.04.143 W004.40.53.915
 N052.05.24.207 W004.40.57.082
 N052.05.27.379 W004.40.50.746
 N052.05.42.169 W004.40.50.746
 N052.05.50.615 W004.41.08.700
 N052.06.00.118 W004.41.21.372
 N052.06.08.564 W004.41.15.036
 N052.06.17.023 W004.41.29.821
 N052.06.19.124 W004.41.54.110
 N052.06.29.685 W004.42.44.801
 N052.06.36.030 W004.42.44.801
 N052.06.47.648 W004.43.15.427
 N052.07.04.539 W004.43.53.447
 N052.06.57.151 W004.44.09.286
 N052.06.32.857 W004.44.15.622
 N052.06.25.469 W004.44.42.025
 N052.06.11.736 W004.45.03.147
 N052.06.05.405 W004.44.45.192
 N052.05.56.946 W004.44.45.192
 N052.05.50.615 W004.44.38.856
 N052.05.32.666 W004.45.09.483
 N052.05.17.876 W004.45.14.763
 N052.05.11.545 W004.45.27.438
 N052.04.41.964 W004.45.45.392
 N052.04.24.015 W004.46.21.299
 N052.04.06.066 W004.46.32.912
 N052.03.57.621 W004.47.08.822
 N052.03.38.600 W004.47.15.158
 N052.03.25.925 W004.47.54.233
 N052.03.28.040 W004.48.59.710
 N052.03.22.766 W004.49.35.616
 N052.03.15.378 W004.49.51.455
 N052.03.09.034 W004.49.50.401
 N052.02.59.530 W004.50.21.026
 N052.02.57.415 W004.50.14.690
 N052.02.33.136 W004.50.50.596
 N052.02.12.014 W004.50.51.652
 N052.02.07.785 W004.50.42.147
 N052.02.07.785 W004.50.30.531
 N052.02.00.396 W004.50.21.026
 N052.01.54.052 W004.50.27.362
 N052.01.44.549 W004.50.21.026
 N052.01.29.758 W004.50.32.644
 N052.01.25.542 W004.49.59.904
 N052.01.18.154 W004.49.38.783
 N052.01.16.039 W004.49.41.952
 N052.01.19.198 W004.50.24.195
 N052.01.16.039 W004.50.42.147
 N052.01.25.542 W004.51.36.007
 N052.01.16.039 W004.52.00.296
 N052.01.16.039 W004.52.18.250
 N052.01.19.198 W004.52.24.586
 N052.01.13.924 W004.52.47.820
 N052.01.13.924 W004.53.12.109
 N052.01.28.701 W004.53.18.448
 N052.01.26.600 W004.53.38.512
 N052.01.51.937 W004.53.36.402
 N052.02.07.785 W004.54.12.308
 N052.02.04.612 W004.54.23.925
 N052.02.07.785 W004.54.36.597
 N052.02.02.498 W004.54.45.046
 N052.01.54.052 W004.54.45.046
 N052.01.44.549 W004.55.09.336
 N052.01.29.758 W004.55.09.336
 N052.01.28.701 W004.54.54.551
 N052.01.21.313 W004.54.51.382
 N052.00.57.033 W004.55.20.952
 N052.00.40.128 W004.55.24.121
 N052.00.46.458 W004.55.42.074
 N052.00.34.854 W004.55.53.692
 N052.00.38.013 W004.56.00.028
 N052.00.32.739 W004.56.14.813
 N052.00.25.337 W004.56.17.980
 N052.00.28.510 W004.56.35.934
 N052.00.21.121 W004.56.39.101
 N052.00.19.006 W004.56.47.550
 N052.00.07.388 W004.57.29.793
 N052.00.07.388 W004.58.12.035
 N052.00.00.000 W004.58.20.484
 N052.00.00.000 W005.00.00.000
 N052.00.00.000 W003.50.00.000
 N052.31.00.000 W003.50.00.000
  
Coastline 4015170 N052.01.28.701 W004.59.59.755
 N052.01.33.988 W004.59.53.419
 N052.01.25.542 W004.59.41.802
 N052.01.33.988 W004.59.30.184
 N052.01.26.600 W004.59.15.399
 N052.01.02.306 W004.59.15.399
 N052.00.47.516 W004.58.26.820
 N052.00.40.128 W004.58.29.989
 N052.00.42.242 W004.59.09.063
 N052.00.11.618 W004.59.39.692
 N052.00.07.388 W004.59.36.520
 N052.00.04.216 W004.59.23.848
 N052.00.07.388 W004.58.41.606
 N052.00.00.000 W004.58.39.493

Coastline 4015170 N053.15.13.625 W003.59.59.616
N053.14.58.755 W003.59.59.523
N052.59.46.294 W004.24.54.291
N052.44.13.710 W004.00.12.893
N052.47.58.705 W002.37.26.231
N053.15.0.574 W003.59.32.662
N053.15.13.757 W003.59.59.836

Coastline 4015170  N053.15.13.350 W003.59.58.504
 N053.14.58.945 W003.59.29.541
 N052.47.53.036 W002.37.40.030
 N052.51.30.590 W001.25.27.863
 N053.20.34.760 W001.36.31.151
 N053.13.56.942 W003.04.39.270
 N053.14.25.542 W003.48.57.682
 N053.15.11.485 W003.59.55.792

Coastline 4015170  N053.15.13.549 W003.59.58.373
 N053.16.32.102 W003.49.1.092
 N053.16.4.033 W003.48.45.341
 N053.15.49.000 W003.48.46.163
 N053.15.34.658 W003.49.25.759
 N053.15.14.344 W003.49.44.919
 N053.14.53.942 W003.49.38.957
 N053.14.38.430 W003.48.56.281
 N053.14.24.818 W003.48.52.531
 N053.15.9.640 W003.59.55.166
 N053.15.13.549 W003.59.58.373

  
Coastline 4015170 N052.44.10.754 W003.59.59.593
 N052.44.07.581 W004.00.17.547
 N052.44.07.581 W004.01.12.465
 N052.44.03.352 W004.01.27.250
 N052.43.35.900 W004.01.38.863
 N052.43.22.167 W004.01.59.988
 N052.43.22.167 W004.02.29.555
 N052.43.13.721 W004.03.00.184
 N052.43.13.721 W004.03.24.473
 N052.43.19.008 W004.03.42.427
 N052.44.23.416 W004.04.39.454
 N052.44.47.709 W004.04.51.071
 N052.45.59.518 W004.06.20.838
 N052.46.33.315 W004.06.51.462
 N052.46.59.724 W004.07.32.650
 N052.47.09.227 W004.07.32.650
 N052.47.38.794 W004.08.14.891
 N052.47.51.469 W004.08.21.227
 N052.47.59.915 W004.08.39.181
 N052.48.45.330 W004.09.08.752
 N052.48.56.948 W004.09.08.752
 N052.49.08.566 W004.08.50.798
 N052.49.34.960 W004.07.53.770
 N052.49.29.687 W004.07.50.603
 N052.49.03.279 W004.08.21.227
 N052.48.52.718 W004.08.18.060
 N052.49.03.279 W004.07.56.939
 N052.49.21.227 W004.07.45.321
 N052.49.36.018 W004.07.09.414
 N052.49.47.636 W004.07.03.078
 N052.49.52.923 W004.07.12.583
 N052.49.43.420 W004.07.24.200
 N052.49.40.247 W004.07.35.818
 N052.49.42.349 W004.07.38.985
 N052.50.36.209 W004.07.27.368
 N052.50.50.999 W004.07.09.414
 N052.51.15.293 W004.07.14.696
 N052.51.41.688 W004.07.32.650
 N052.52.27.102 W004.08.21.227
 N052.53.03.014 W004.08.57.139
 N052.53.17.791 W004.08.57.139
 N052.53.42.084 W004.08.50.798
 N052.53.46.314 W004.08.42.354
 N052.53.46.314 W004.08.18.060
 N052.53.43.141 W004.08.11.724
 N052.53.46.314 W004.07.53.770
 N052.53.39.969 W004.07.35.818
 N052.53.39.969 W004.07.12.583
 N052.53.52.645 W004.06.36.677
 N052.53.52.645 W004.06.18.723
 N052.53.58.976 W004.06.06.052
N052.54.04.263 W004.05.05.856
 N052.54.26.441 W004.04.57.407
 N052.54.50.735 W004.05.02.689
 N052.54.52.836 W004.04.54.240
 N052.54.49.677 W004.04.42.622
 N052.55.18.187 W004.03.27.642
 N052.55.22.417 W004.03.29.755
 N052.55.22.417 W004.03.42.427
 N052.55.15.015 W004.03.44.540
 N052.55.10.799 W004.03.54.043
 N052.55.10.799 W004.04.06.715
 N052.55.19.244 W004.04.29.950
 N052.55.19.244 W004.04.42.622
 N052.54.43.333 W004.05.41.762
 N052.54.34.887 W004.05.59.716
 N052.54.31.715 W004.06.18.723
 N052.54.42.275 W004.06.45.126
 N052.55.03.397 W004.06.27.174
 N052.55.29.805 W004.06.33.508
 N052.55.31.920 W004.06.35.623
 N052.55.25.575 W004.06.48.293
 N052.55.25.575 W004.06.59.911
 N052.55.29.805 W004.07.21.032
 N052.55.37.193 W004.07.29.482
 N052.55.26.633 W004.07.45.321
 N052.55.00.238 W004.07.50.603
 N052.54.57.066 W004.08.03.275
 N052.54.37.002 W004.08.29.676
 N052.54.34.887 W004.08.53.966
 N052.54.16.938 W004.09.11.919
 N052.54.15.881 W004.09.54.166
 N052.54.25.384 W004.10.41.689
 N052.54.46.505 W004.11.30.268
 N052.54.43.333 W004.12.06.174
 N052.55.04.454 W004.13.06.369
 N052.55.04.454 W004.13.35.941
 N052.54.52.836 W004.13.53.893
 N052.54.49.677 W004.15.12.042
 N052.54.37.002 W004.15.36.330
 N052.54.34.887 W004.16.18.578
 N052.54.37.002 W004.16.23.855
 N052.54.34.887 W004.18.17.914
 N052.54.31.715 W004.18.24.250
 N052.54.31.715 W004.19.06.492
 N052.54.14.823 W004.19.27.613
 N052.53.35.753 W004.19.27.613
 N052.53.31.523 W004.19.36.062
 N052.53.34.696 W004.19.47.680
 N052.53.31.523 W004.20.23.587
 N052.53.37.854 W004.20.36.257
 N052.53.37.854 W004.20.54.211
 N052.53.41.027 W004.21.00.547
 N052.53.46.314 W004.22.30.312
 N052.53.43.141 W004.22.35.594
 N052.53.43.141 W004.23.06.219
 N052.53.39.969 W004.23.11.501
 N052.53.37.854 W004.23.42.125
 N052.53.32.581 W004.23.50.574
 N052.53.20.963 W004.24.09.588
 N052.53.04.071 W004.24.18.037
 N052.53.04.071 W004.24.24.373
 N052.53.16.733 W004.24.30.709
 N052.53.16.733 W004.24.47.602
 N052.53.09.345 W004.24.57.110
 N052.53.00.899 W004.24.48.661
 N052.52.58.784 W004.24.24.373
 N052.52.58.784 W004.24.06.419
 N052.53.04.071 W004.23.54.802
 N052.53.04.071 W004.23.42.125
 N052.52.56.669 W004.23.45.298
 N052.52.52.453 W004.23.53.743
 N052.52.46.109 W004.25.24.568
 N052.52.37.663 W004.26.00.474
 N052.52.28.160 W004.26.18.426
 N052.52.31.332 W004.26.36.380
 N052.52.22.873 W004.27.05.951
 N052.52.02.809 W004.27.51.360
 N052.51.48.032 W004.27.51.360
 N052.51.37.472 W004.28.24.100
 N052.51.23.739 W004.28.45.221
 N052.51.10.006 W004.28.35.716
 N052.51.10.006 W004.28.24.100
 N052.51.05.790 W004.28.15.650
 N052.50.47.827 W004.28.09.314
 N052.50.43.611 W004.28.30.436
 N052.50.43.611 W004.28.54.724
 N052.50.29.878 W004.29.27.463
 N052.49.44.464 W004.30.08.650
 N052.49.39.190 W004.30.21.322
 N052.49.33.903 W004.30.18.155
 N052.49.34.960 W004.30.06.537
 N052.49.29.687 W004.29.50.698
 N052.49.00.106 W004.30.08.650
 N052.48.48.502 W004.30.03.370
 N052.48.36.884 W004.29.42.248
 N052.48.46.387 W004.29.24.294
 N052.48.45.330 W004.29.14.791
 N052.48.32.654 W004.29.14.791
 N052.48.26.323 W004.29.03.173
 N052.48.06.259 W004.29.03.173
 N052.47.53.584 W004.29.14.791
 N052.47.38.794 W004.29.14.791
 N052.47.32.463 W004.29.27.463
 N052.47.25.061 W004.29.35.912
 N052.47.40.909 W004.29.53.865
 N052.47.40.909 W004.30.18.155
 N052.47.27.176 W004.31.03.570
 N052.46.54.436 W004.31.08.847
 N052.46.41.775 W004.31.39.476
 N052.46.37.545 W004.31.47.925
 N052.46.38.602 W004.31.57.428
 N052.47.01.825 W004.32.23.832
 N052.47.06.054 W004.32.38.617
 N052.47.35.621 W004.32.38.617
 N052.47.41.966 W004.32.26.999
 N052.48.03.087 W004.32.20.659
 N052.48.11.533 W004.32.44.953
 N052.48.34.769 W004.33.17.690
 N052.49.10.681 W004.34.42.175
 N052.49.28.629 W004.36.00.324
 N052.49.28.629 W004.36.29.894
 N052.49.25.457 W004.36.36.231
 N052.49.24.400 W004.36.44.680
 N052.49.11.724 W004.36.51.016
 N052.49.06.451 W004.37.03.688
 N052.48.24.208 W004.37.38.538
 N052.48.16.806 W004.37.54.379
 N052.48.16.806 W004.38.05.996
 N052.47.55.685 W004.38.41.902
 N052.47.56.743 W004.39.03.028
 N052.48.09.418 W004.39.09.363
 N052.48.19.979 W004.39.48.438
 N052.48.00.972 W004.40.24.344
 N052.48.04.145 W004.40.35.961
 N052.47.46.182 W004.41.05.531
 N052.47.49.354 W004.41.11.867
 N052.47.41.966 W004.41.15.036
 N052.47.40.909 W004.41.24.539
 N052.47.43.023 W004.41.36.157
 N052.47.53.584 W004.41.39.324
 N052.48.07.303 W004.42.05.728
 N052.48.13.648 W004.43.12.258
 N052.47.45.138 W004.43.33.380
 N052.47.27.176 W004.43.33.380
 N052.47.20.845 W004.43.44.998
 N052.46.56.551 W004.43.56.614
 N052.46.55.494 W004.44.06.119
 N052.47.03.940 W004.44.30.407
 N052.47.00.781 W004.44.42.025
 N052.47.15.558 W004.44.56.811
 N052.47.17.672 W004.45.09.483
 N052.47.28.233 W004.45.17.932
 N052.47.20.845 W004.45.21.099
 N052.47.19.787 W004.45.30.607
 N052.47.41.966 W004.46.08.623
 N052.47.56.743 W004.46.09.681
 N052.48.00.972 W004.46.00.178
 N052.48.09.418 W004.45.39.053
 N052.48.14.705 W004.45.39.053
 N052.48.19.979 W004.45.30.607
 N052.48.18.921 W004.45.24.268
 N052.48.29.482 W004.45.14.763
 N052.48.35.826 W004.45.21.099
 N052.48.45.330 W004.45.09.483
 N052.49.00.106 W004.45.09.483
 N052.49.19.126 W004.44.48.361
 N052.49.24.400 W004.44.32.520
 N052.49.41.305 W004.44.27.240
 N052.49.57.139 W004.44.09.286
 N052.50.04.541 W004.43.48.165
 N052.50.11.929 W004.43.27.044
 N052.50.39.381 W004.43.33.380
 N052.51.12.121 W004.43.39.716
 N052.51.18.452 W004.43.33.380
 N052.51.25.854 W004.43.18.594
 N052.51.19.509 W004.43.00.642
 N052.51.37.472 W004.42.30.016
 N052.51.37.472 W004.42.00.446
 N052.51.48.032 W004.41.39.324
 N052.52.30.275 W004.41.27.708
 N052.52.34.491 W004.41.18.203
 N052.52.31.332 W004.40.42.297
 N052.52.37.663 W004.40.24.344
 N052.52.38.720 W004.40.14.840
 N052.52.59.842 W004.39.56.887
 N052.53.27.307 W004.40.03.223
 N052.53.30.466 W004.39.51.605
 N052.53.56.874 W004.39.27.317
 N052.53.57.932 W004.39.17.808
 N052.54.11.651 W004.39.03.028
 N052.54.24.326 W004.39.03.028
 N052.54.25.384 W004.38.48.243
 N052.54.19.053 W004.38.41.902
 N052.54.22.212 W004.38.36.625
 N052.54.19.053 W004.38.23.950
 N052.54.22.212 W004.38.05.996
 N052.54.35.945 W004.37.39.598
 N052.54.53.893 W004.37.20.586
 N052.55.03.397 W004.37.26.922
 N052.55.28.748 W004.37.00.519
 N052.55.28.748 W004.36.41.511
 N052.55.37.193 W004.36.29.894
 N052.55.37.193 W004.35.48.706
 N052.55.44.595 W004.35.27.585
 N052.55.50.926 W004.35.26.531
 N052.56.02.544 W004.35.03.296
 N052.56.15.220 W004.34.56.960
 N052.56.22.608 W004.34.42.175
 N052.56.23.665 W004.34.21.054
 N052.56.33.169 W004.34.21.054
 N052.56.58.520 W004.33.59.933
 N052.56.57.462 W004.33.51.484
 N052.56.44.787 W004.33.51.484
 N052.56.38.456 W004.34.03.100
 N052.56.23.665 W004.33.56.764
 N052.56.16.277 W004.33.17.690
 N052.56.16.277 W004.32.54.456
 N052.56.31.054 W004.32.17.490
 N052.56.26.838 W004.32.09.046
 N052.56.20.493 W004.32.15.381
 N052.56.16.277 W004.31.54.261
 N052.56.25.780 W004.31.23.632
 N052.56.59.577 W004.30.21.322
 N052.57.04.850 W004.30.18.155
 N052.57.04.850 W004.30.06.537
 N052.57.20.698 W004.29.33.799
 N052.58.01.883 W004.28.54.724
 N052.58.03.998 W004.28.24.100
 N052.58.12.444 W004.28.09.314
 N052.58.38.839 W004.27.45.024
 N052.59.03.132 W004.27.38.688
 N052.59.07.362 W004.27.18.623
 N052.59.21.081 W004.26.57.502
 N052.59.22.138 W004.26.47.997
 N052.59.55.935 W004.26.12.092
 N052.59.58.050 W004.25.36.186
 N052.59.49.604 W004.25.11.896
 N052.59.49.604 W004.24.53.943
  
Coastline 4015170 N052.47.02.896 W004.42.02.559
 N052.47.09.227 W004.42.03.615
 N052.47.10.284 W004.42.00.446
 N052.47.10.284 W004.41.54.110
 N052.47.09.227 W004.41.50.942
 N052.47.02.896 W004.41.50.942
 N052.47.01.825 W004.41.54.110
 N052.47.01.825 W004.42.00.446
 N052.47.02.896 W004.42.02.559
  
Coastline 4015170 N052.47.14.500 W004.41.50.942
 N052.47.20.845 W004.41.50.942
 N052.47.21.902 W004.41.47.774
 N052.47.21.902 W004.41.42.493
 N052.47.20.845 W004.41.39.324
 N052.47.14.500 W004.41.39.324
 N052.47.13.443 W004.41.42.493
 N052.47.13.443 W004.41.47.774
 N052.47.14.500 W004.41.50.942
  
Coastline 4015170 N052.53.09.345 W004.24.45.494
 N052.53.12.517 W004.24.45.494
 N052.53.13.575 W004.24.42.325
 N052.53.13.575 W004.24.35.989
 N052.53.11.460 W004.24.32.817
 N052.53.08.287 W004.24.32.817
 N052.53.07.230 W004.24.35.989
 N052.53.07.230 W004.24.42.325
 N052.53.09.345 W004.24.45.494
  
Coastline 4015170 N052.48.17.864 W004.28.02.978
 N052.48.21.036 W004.28.02.978
 N052.48.25.266 W004.27.53.474
 N052.48.25.266 W004.27.48.193
 N052.48.17.864 W004.27.33.408
 N052.48.11.533 W004.27.33.408
 N052.48.07.303 W004.27.41.857
 N052.48.11.533 W004.27.57.696
 N052.48.14.705 W004.27.57.696
 N052.48.17.864 W004.28.02.978
  
Coastline 4015170 N052.07.51.011 W004.41.50.942
 N052.07.54.170 W004.41.50.942
 N052.08.01.572 W004.41.29.821
 N052.08.01.572 W004.41.18.203
 N052.07.51.011 W004.41.15.036
 N052.07.46.782 W004.41.23.485
 N052.07.46.782 W004.41.42.493
 N052.07.51.011 W004.41.50.942
  
Coastline 4015170 N052.43.03.160 W004.03.39.258
 N052.43.04.218 W004.03.36.091
 N052.43.04.218 W004.03.24.473
 N052.43.01.046 W004.03.18.137
 N052.42.59.988 W004.03.08.634
 N052.42.55.772 W004.03.11.801
 N052.42.55.772 W004.03.18.137
 N052.42.58.931 W004.03.23.419
 N052.42.57.873 W004.03.29.755
 N052.43.03.160 W004.03.39.258
  
Coastline 4015170 N052.44.44.537 W004.48.15.354
 N052.45.02.499 W004.48.15.354
 N052.45.20.448 W004.47.51.064
 N052.46.02.691 W004.47.51.064
 N052.46.10.079 W004.47.24.662
 N052.46.07.978 W004.47.00.372
 N052.45.51.073 W004.46.45.587
 N052.45.26.779 W004.46.50.869
 N052.45.10.945 W004.47.11.990
 N052.45.14.117 W004.47.42.615
 N052.44.57.212 W004.47.44.728
 N052.44.43.493 W004.48.12.185
 N052.44.44.537 W004.48.15.354
  
Coastline 4015170 N052.47.45.138 W004.28.27.267
 N052.47.59.915 W004.28.27.267
 N052.48.00.972 W004.28.17.764
 N052.47.56.743 W004.28.09.314
 N052.47.48.297 W004.28.09.314
 N052.47.43.023 W004.28.17.764
 N052.47.43.023 W004.28.24.100
 N052.47.45.138 W004.28.27.267
  
  
Coastline 4015170 N053.00.00.165 W004.24.32.817
 N053.00.07.553 W004.24.29.650
 N053.00.26.559 W004.23.50.574
 N053.00.44.508 W004.23.38.958
 N053.01.15.146 W004.22.33.481
 N053.01.34.153 W004.22.18.696
 N053.01.41.541 W004.21.57.575
 N053.01.51.044 W004.21.51.239
 N053.01.52.102 W004.21.36.454
 N053.02.02.662 W004.21.15.332
 N053.02.38.574 W004.21.08.996
 N053.02.44.905 W004.21.02.660
 N053.02.51.249 W004.20.39.426
 N053.03.09.198 W004.20.39.426
 N053.03.12.371 W004.20.33.090
 N053.04.09.390 W004.20.33.090
 N053.04.11.505 W004.20.26.754
 N053.04.53.747 W004.20.21.472
 N053.05.14.868 W004.20.26.754
 N053.05.35.989 W004.20.44.706
 N053.06.15.060 W004.20.51.042
 N053.06.29.850 W004.21.03.714
 N053.06.47.799 W004.21.02.660
 N053.07.12.092 W004.20.39.426
 N053.07.22.653 W004.20.18.305
 N053.07.22.653 W004.19.54.016
 N053.07.16.322 W004.19.47.680
 N053.07.15.265 W004.19.14.941
 N053.06.54.143 W004.20.03.520
 N053.06.39.353 W004.19.39.230
 N053.06.26.678 W004.19.32.895
 N053.06.02.398 W004.19.27.613
 N053.05.58.168 W004.19.11.774
 N053.06.08.729 W004.18.56.989
 N053.06.24.576 W004.19.03.325
 N053.06.39.353 W004.18.50.653
 N053.06.50.971 W004.18.50.653
 N053.06.54.143 W004.18.56.989
 N053.07.15.265 W004.18.56.989
 N053.07.17.379 W004.19.03.325
 N053.07.26.883 W004.19.03.325
 N053.07.51.176 W004.18.39.035
 N053.08.27.074 W004.16.56.592
 N053.08.38.692 W004.16.51.316
 N053.08.54.540 W004.16.21.745
 N053.09.27.279 W004.15.57.457
 N053.10.11.623 W004.14.57.257
 N053.10.47.534 W004.13.14.820
 N053.11.00.210 W004.12.56.866
 N053.11.24.503 W004.12.45.249
 N053.12.05.688 W004.12.45.249
 N053.12.18.350 W004.12.38.913
 N053.12.29.968 W004.12.20.959
 N053.12.58.491 W004.11.23.932
 N053.13.10.109 W004.10.36.409
 N053.13.06.937 W004.10.05.783
 N053.13.48.122 W004.08.57.139
 N053.13.55.510 W004.08.18.060
 N053.14.14.530 W004.07.45.321
 N053.14.16.631 W004.07.30.536
 N053.13.58.683 W004.07.06.247
 N053.13.59.740 W004.06.56.744
 N053.14.09.243 W004.07.03.078
 N053.14.13.473 W004.06.54.629
 N053.14.09.243 W004.06.38.790
 N053.13.58.683 W004.06.30.341
 N053.14.13.473 W004.05.54.434
 N053.14.06.071 W004.05.26.977
 N053.13.54.453 W004.05.21.697
 N053.13.46.007 W004.05.05.856
 N053.13.46.007 W004.04.54.240
 N053.14.05.027 W004.04.11.997
 N053.14.05.027 W004.03.00.184
 N053.14.13.473 W004.02.42.230
 N053.14.13.473 W004.02.17.942
 N053.14.20.861 W004.01.56.816
 N053.14.34.594 W004.01.48.372
 N053.14.40.925 W004.00.54.511
 N053.14.52.543 W004.00.35.500
 N053.14.58.874 W003.59.59.593
  
Coastline 4015170 N053.15.04.161 W003.59.59.593
 N053.15.06.276 W004.00.20.714
 N053.15.11.549 W004.00.20.714
 N053.15.13.664 W003.59.59.593
  
Coastline 4015170 N053.18.20.597 W004.42.15.231
 N053.18.30.100 W004.42.15.231
 N053.18.31.157 W004.41.54.110
 N053.18.37.488 W004.41.47.774
 N053.18.48.049 W004.41.03.418
 N053.18.56.494 W004.40.57.082
 N053.19.23.960 W004.41.03.418
 N053.19.25.004 W004.40.48.633
 N053.19.16.558 W004.40.29.625
 N053.19.19.731 W004.40.18.008
 N053.19.07.055 W004.39.53.720
 N053.19.20.788 W004.39.27.317
 N053.19.22.903 W004.39.06.196
 N053.19.03.883 W004.38.41.902
 N053.19.08.112 W004.38.35.566
 N053.18.58.609 W004.37.48.043
 N053.19.10.227 W004.37.30.089
 N053.18.56.494 W004.37.26.922
 N053.18.54.380 W004.37.15.304
 N053.18.48.049 W004.37.26.922
 N053.18.30.100 W004.36.57.352
 N053.18.10.036 W004.36.47.847
 N053.18.10.036 W004.36.29.894
 N053.18.19.539 W004.36.18.276
 N053.18.19.539 W004.35.53.988
 N053.18.15.309 W004.35.39.203
 N053.18.06.864 W004.35.36.034
 N053.18.07.921 W004.35.18.082
 N053.17.26.736 W004.35.27.585
 N053.17.16.176 W004.35.48.706
 N053.17.15.118 W004.36.08.773
 N053.17.11.946 W004.35.57.155
 N053.17.02.443 W004.35.57.155
 N053.17.01.385 W004.36.23.558
 N053.16.53.997 W004.36.33.062
 N053.16.55.054 W004.35.53.988
 N053.16.47.652 W004.35.32.867
 N053.16.26.531 W004.35.44.483
 N053.16.33.933 W004.35.24.418
 N053.16.21.258 W004.34.51.678
 N053.15.55.907 W004.34.48.511
 N053.15.58.022 W004.34.11.549
 N053.15.47.461 W004.33.51.484
 N053.15.39.015 W004.34.21.054
 N053.15.27.397 W004.33.51.484
 N053.15.14.722 W004.33.38.812
 N053.15.04.161 W004.33.41.979
 N053.15.07.333 W004.33.53.597
 N053.15.03.104 W004.33.56.764
 N053.14.55.715 W004.33.48.315
 N053.14.51.486 W004.33.20.858
 N053.14.40.925 W004.33.30.362
 N053.14.45.155 W004.34.03.100
 N053.14.34.594 W004.34.17.885
 N053.14.34.594 W004.34.48.511
 N053.14.22.976 W004.35.06.464
 N053.14.29.307 W004.35.27.585
 N053.14.38.810 W004.35.21.249
 N053.14.40.925 W004.35.29.698
 N053.14.21.919 W004.35.42.370
 N053.14.21.919 W004.36.00.324
 N053.14.45.155 W004.36.51.016
 N053.14.56.773 W004.37.03.688
 N053.15.03.104 W004.36.44.680
 N053.15.06.276 W004.36.51.016
 N053.15.21.066 W004.36.44.680
 N053.15.42.188 W004.37.03.688
 N053.15.47.461 W004.37.26.922
 N053.15.56.964 W004.37.21.640
 N053.16.06.467 W004.37.44.874
 N053.16.14.913 W004.37.44.874
 N053.16.21.258 W004.37.26.922
 N053.16.42.379 W004.37.15.304
 N053.16.49.767 W004.38.12.337
 N053.16.58.213 W004.38.30.289
 N053.16.58.213 W004.38.59.856
 N053.17.10.888 W004.39.11.472
 N053.16.51.882 W004.40.00.054
 N053.17.01.385 W004.40.35.961
 N053.16.52.939 W004.40.47.579
 N053.16.55.054 W004.41.11.867
 N053.17.00.328 W004.41.21.372
 N053.17.11.946 W004.41.15.036
 N053.17.15.118 W004.41.21.372
 N053.17.26.736 W004.41.21.372
 N053.17.39.398 W004.40.50.746
 N053.17.44.685 W004.40.57.082
 N053.17.54.188 W004.40.45.466
 N053.17.58.418 W004.41.29.821
 N053.18.15.309 W004.41.44.606
 N053.18.19.539 W004.42.12.064
 N053.18.20.597 W004.42.15.231
  
Coastline 4015170 N053.25.12.460 W004.36.57.352
 N053.25.14.575 W004.36.57.352
 N053.25.16.690 W004.36.54.183
 N053.25.16.690 W004.36.41.511
 N053.25.11.403 W004.36.39.398
 N053.25.10.345 W004.36.42.567
 N053.25.10.345 W004.36.54.183
 N053.25.12.460 W004.36.57.352
  
Coastline 4015170 N053.25.24.078 W004.36.39.398
 N053.25.27.251 W004.36.39.398
 N053.25.28.294 W004.36.36.231
 N053.25.28.294 W004.36.29.894
 N053.25.24.078 W004.36.21.445
 N053.25.20.906 W004.36.21.445
 N053.25.19.849 W004.36.24.612
 N053.25.19.849 W004.36.29.894
 N053.25.24.078 W004.36.39.398
  
Coastline 4015170 N053.14.12.415 W004.36.15.109
 N053.14.17.689 W004.36.15.109
 N053.14.19.804 W004.36.11.940
 N053.14.19.804 W004.36.05.604
 N053.14.17.689 W004.36.03.491
 N053.14.12.415 W004.36.03.491
 N053.14.10.301 W004.36.06.660
 N053.14.10.301 W004.36.11.940
 N053.14.12.415 W004.36.15.109
  
Coastline 4015170 N053.14.17.689 W004.35.32.867
 N053.14.20.861 W004.35.32.867
 N053.14.21.919 W004.35.29.698
 N053.14.21.919 W004.35.24.418
 N053.14.20.861 W004.35.21.249
 N053.14.17.689 W004.35.21.249
 N053.14.16.631 W004.35.24.418
 N053.14.16.631 W004.35.29.698
 N053.14.17.689 W004.35.32.867
  
Coastline 4015170 N053.16.47.652 W004.35.27.585
 N053.16.53.997 W004.35.27.585
 N053.16.55.054 W004.35.11.746
 N053.17.00.328 W004.35.09.632
 N053.17.05.615 W004.34.50.624
 N053.17.23.564 W004.34.39.006
 N053.17.44.685 W004.33.51.484
 N053.17.51.016 W004.33.51.484
 N053.17.58.418 W004.33.36.698
 N053.17.55.246 W004.33.24.026
 N053.18.05.806 W004.32.57.623
 N053.18.19.539 W004.32.54.456
 N053.18.10.036 W004.33.12.408
 N053.18.13.195 W004.33.36.698
 N053.18.08.979 W004.33.45.148
 N053.17.59.475 W004.33.45.148
 N053.17.58.418 W004.33.59.933
 N053.18.02.634 W004.34.09.436
 N053.18.23.755 W004.33.56.764
 N053.19.02.839 W004.33.56.764
 N053.19.09.170 W004.34.27.390
 N053.19.25.004 W004.34.29.503
 N053.19.25.004 W004.34.48.511
 N053.19.33.463 W004.35.08.577
 N053.19.53.527 W004.35.14.913
 N053.20.04.088 W004.34.53.792
 N053.20.00.916 W004.34.30.557
 N053.20.17.821 W004.34.21.054
 N053.21.23.286 W004.34.14.718
 N053.21.39.133 W004.33.45.148
 N053.22.21.376 W004.33.33.530
 N053.22.57.287 W004.34.09.436
 N053.23.20.510 W004.34.09.436
 N053.23.23.682 W004.34.03.100
 N053.23.26.854 W004.34.32.670
 N053.23.51.148 W004.34.27.390
 N053.23.59.594 W004.34.45.342
 N053.24.12.269 W004.34.45.342
 N053.24.22.830 W004.34.17.885
 N053.24.24.931 W004.33.48.315
 N053.24.16.485 W004.33.30.362
 N053.24.16.485 W004.33.17.690
 N053.24.25.988 W004.33.00.792
 N053.24.23.887 W004.31.57.428
 N053.24.35.505 W004.31.57.428
 N053.24.58.727 W004.30.54.061
 N053.24.53.454 W004.30.45.616
 N053.24.41.836 W004.31.03.570
 N053.24.28.103 W004.31.00.401
 N053.24.30.218 W004.30.45.616
 N053.24.38.664 W004.30.57.228
 N053.24.37.606 W004.30.29.771
 N053.24.52.397 W004.30.00.201
 N053.24.42.893 W004.29.42.248
 N053.24.48.167 W004.29.27.463
 N053.24.54.511 W004.29.32.744
 N053.24.59.785 W004.29.21.127
 N053.25.09.288 W004.29.21.127
 N053.25.17.747 W004.29.03.173
 N053.25.23.021 W004.28.48.388
 N053.25.18.791 W004.28.42.052
 N053.25.19.849 W004.28.30.436
 N053.25.11.403 W004.28.27.267
 N053.25.06.129 W004.28.38.885
 N053.24.55.569 W004.28.06.146
 N053.24.58.727 W004.27.30.239
 N053.24.52.397 W004.27.18.623
 N053.24.52.397 W004.27.05.951
 N053.25.06.129 W004.27.20.736
 N053.25.17.747 W004.26.57.502
 N053.25.24.078 W004.27.15.454
 N053.25.28.294 W004.26.47.997
 N053.25.37.811 W004.26.41.662
 N053.25.43.085 W004.26.18.426
 N053.25.39.912 W004.25.54.138
 N053.25.49.416 W004.25.47.802
 N053.25.49.416 W004.25.36.186
 N053.25.34.639 W004.25.05.556
 N053.25.40.970 W004.24.35.989
 N053.25.35.696 W004.24.27.540
 N053.25.18.791 W004.24.24.373
 N053.25.34.639 W004.23.54.802
 N053.25.31.467 W004.23.06.219
 N053.25.37.811 W004.22.59.883
 N053.25.34.639 W004.22.48.266
 N053.25.27.251 W004.22.14.473
 N053.25.14.575 W004.22.09.191
 N053.24.55.569 W004.21.41.734
 N053.25.10.345 W004.20.29.921
 N053.25.06.129 W004.20.08.802
 N053.24.58.727 W004.20.05.633
 N053.25.07.173 W004.19.36.062
 N053.24.49.224 W004.18.30.586
 N053.24.55.569 W004.18.12.633
 N053.24.51.339 W004.17.51.512
 N053.24.42.893 W004.17.42.007
 N053.25.02.957 W004.17.45.176
 N053.25.04.015 W004.17.35.671
 N053.24.45.008 W004.17.09.270
 N053.24.27.046 W004.17.09.270
 N053.24.23.887 W004.17.15.606
 N053.24.19.657 W004.16.48.148
 N053.24.12.269 W004.16.38.640
 N053.23.54.306 W004.16.39.699
 N053.23.44.803 W004.16.20.686
 N053.23.36.357 W004.16.20.686
 N053.23.20.510 W004.16.15.409
 N053.23.18.409 W004.16.21.745
 N053.23.08.905 W004.16.20.686
 N053.22.57.287 W004.16.44.980
 N053.22.39.325 W004.16.51.316
 N053.22.11.873 W004.17.27.222
 N053.22.00.255 W004.17.38.840
 N053.21.54.981 W004.17.24.055
 N053.22.08.700 W004.17.09.270
 N053.22.15.045 W004.16.51.316
 N053.22.26.649 W004.16.57.652
 N053.22.30.879 W004.16.30.194
 N053.22.23.491 W004.16.27.022
 N053.22.11.873 W004.16.02.734
 N053.22.05.528 W004.15.57.457
 N053.21.47.579 W004.16.02.734
 N053.21.37.018 W004.15.42.672
 N053.21.40.191 W004.14.47.752
 N053.21.28.573 W004.14.18.182
 N053.21.29.630 W004.13.50.726
 N053.21.21.184 W004.13.50.726
 N053.21.03.222 W004.14.15.014
 N053.20.53.719 W004.14.08.678
 N053.20.45.273 W004.13.50.726
 N053.20.32.597 W004.13.50.726
 N053.20.30.482 W004.14.03.396
 N053.20.13.591 W004.14.00.229
 N053.20.18.864 W004.13.47.557
 N053.20.17.821 W004.13.32.772
 N053.19.59.858 W004.13.32.772
 N053.19.30.291 W004.13.14.820
 N053.19.11.285 W004.13.14.820
 N053.18.58.609 W004.12.48.416
 N053.18.54.380 W004.12.20.959
 N053.18.36.431 W004.12.20.959
 N053.17.54.188 W004.12.56.866
 N053.17.46.800 W004.12.42.080
 N053.17.46.800 W004.12.17.792
 N053.17.52.073 W004.12.06.174
 N053.17.48.915 W004.11.35.550
 N053.18.01.577 W004.10.59.643
 N053.17.58.418 W004.10.48.025
 N053.18.16.367 W004.10.05.783
 N053.18.19.539 W004.09.00.306
 N053.18.58.609 W004.08.11.724
 N053.18.58.609 W004.07.53.770
 N053.19.10.227 W004.07.12.583
 N053.19.10.227 W004.06.17.669
 N053.18.55.437 W004.05.30.146
 N053.18.43.833 W004.04.29.950
 N053.18.55.437 W004.03.36.091
 N053.18.46.991 W004.03.11.801
 N053.18.43.833 W004.02.42.230
 N053.18.41.718 W004.02.27.445
 N053.18.23.755 W004.02.39.063
 N053.18.13.195 W004.03.00.184
 N053.18.05.806 W004.03.32.922
 N053.17.41.513 W004.03.39.258
 N053.17.29.895 W004.04.15.164
 N053.16.57.155 W004.04.33.118
 N053.16.29.703 W004.05.09.025
 N053.15.42.188 W004.05.20.641
 N053.15.39.015 W004.05.57.602
 N053.15.24.225 W004.06.14.502
 N053.15.11.549 W004.06.02.884
 N053.15.10.492 W004.06.36.677
 N053.14.55.715 W004.07.06.247
 N053.14.43.040 W004.07.48.490
 N053.14.14.530 W004.08.39.181
 N053.14.10.301 W004.09.11.919
 N053.13.59.740 W004.09.33.045
 N053.13.41.791 W004.09.44.658
 N053.13.27.001 W004.09.44.658
 N053.13.19.612 W004.10.05.783
 N053.13.20.670 W004.10.33.240
 N053.13.27.001 W004.10.20.568
 N053.13.31.230 W004.10.23.737
 N053.13.24.886 W004.10.48.025
 N053.13.01.664 W004.11.30.268
 N053.12.52.147 W004.12.17.792
 N053.12.38.427 W004.12.45.249
 N053.12.18.350 W004.13.03.202
 N053.11.32.949 W004.12.56.866
 N053.11.24.503 W004.13.08.484
 N053.11.08.655 W004.13.14.820
 N053.11.07.598 W004.13.35.941
 N053.10.52.821 W004.14.06.565
 N053.10.52.821 W004.14.29.800
 N053.09.57.903 W004.16.12.242
 N053.09.58.947 W004.16.18.578
 N053.09.48.400 W004.16.39.699
 N053.09.24.107 W004.16.56.592
 N053.08.42.922 W004.18.30.586
 N053.08.34.462 W004.19.18.110
 N053.08.38.692 W004.19.39.230
 N053.08.49.253 W004.19.36.062
 N053.08.49.253 W004.20.18.305
 N053.08.35.520 W004.20.15.136
 N053.08.17.571 W004.20.44.706
 N053.07.59.622 W004.21.20.613
 N053.07.45.889 W004.19.47.680
 N053.07.36.386 W004.19.44.512
 N053.07.31.099 W004.19.54.016
 N053.07.40.616 W004.20.18.305
 N053.07.40.616 W004.20.59.493
 N053.07.49.061 W004.21.48.070
 N053.08.26.017 W004.22.59.883
 N053.08.40.807 W004.24.11.696
 N053.08.40.807 W004.24.24.373
 N053.08.32.361 W004.24.32.817
 N053.08.20.743 W004.24.27.540
 N053.08.15.456 W004.24.44.435
 N053.08.02.780 W004.24.45.494
 N053.07.58.564 W004.25.00.279
 N053.08.02.780 W004.25.08.728
 N053.08.14.398 W004.25.08.728
 N053.08.35.520 W004.24.45.494
 N053.08.51.367 W004.24.45.494
 N053.09.29.380 W004.25.15.064
 N053.09.42.056 W004.25.15.064
 N053.09.49.444 W004.25.06.615
 N053.10.01.062 W004.24.11.696
 N053.10.13.737 W004.23.53.743
 N053.10.16.910 W004.23.42.125
 N053.10.11.623 W004.23.27.345
 N053.11.03.382 W004.23.03.052
 N053.11.25.547 W004.23.24.173
 N053.11.20.273 W004.23.32.622
 N053.11.12.885 W004.23.42.125
 N053.11.07.598 W004.24.06.419
 N053.10.47.534 W004.24.21.204
 N053.10.35.916 W004.24.50.774
 N053.10.17.967 W004.24.50.774
 N053.10.08.464 W004.25.03.446
 N053.09.56.846 W004.25.39.353
 N053.09.35.725 W004.25.50.971
 N053.09.31.495 W004.26.18.426
 N053.09.16.705 W004.26.41.662
 N053.09.17.776 W004.26.51.166
 N053.09.27.279 W004.26.51.166
 N053.09.35.725 W004.26.38.494
 N053.09.53.674 W004.27.20.736
 N053.10.08.464 W004.27.15.454
 N053.10.21.140 W004.27.38.688
 N053.10.42.261 W004.27.38.688
 N053.10.57.037 W004.28.02.978
 N053.11.21.331 W004.27.57.696
 N053.11.14.986 W004.28.09.314
 N053.11.00.210 W004.28.09.314
 N053.10.49.649 W004.28.35.716
 N053.10.49.649 W004.29.00.006
 N053.10.42.261 W004.29.03.173
 N053.10.36.974 W004.29.17.958
 N053.10.44.362 W004.29.32.744
 N053.11.08.655 W004.29.27.463
 N053.11.13.943 W004.29.42.248
 N053.11.10.770 W004.29.47.529
 N053.11.12.885 W004.30.18.155
 N053.11.32.949 W004.30.32.940
 N053.11.47.726 W004.30.32.940
 N053.12.20.465 W004.30.03.370
 N053.12.26.809 W004.30.26.604
 N053.12.56.376 W004.30.26.604
 N053.13.15.383 W004.30.57.228
 N053.13.22.785 W004.31.12.014
 N053.13.20.670 W004.31.33.140
 N053.13.48.122 W004.31.39.476
 N053.14.02.912 W004.31.26.799
 N053.14.14.530 W004.32.20.659
 N053.14.24.034 W004.32.26.999
 N053.14.48.327 W004.33.14.523
 N053.15.08.391 W004.33.20.858
 N053.15.17.894 W004.33.09.241
 N053.15.29.512 W004.33.38.812
 N053.15.45.346 W004.33.38.812
 N053.15.56.964 W004.33.15.577
 N053.15.52.734 W004.33.36.698
 N053.15.55.907 W004.33.53.597
 N053.16.05.410 W004.34.14.718
 N053.16.18.085 W004.34.09.436
 N053.16.28.646 W004.34.35.839
 N053.16.28.646 W004.34.53.792
 N053.16.43.436 W004.35.18.082
 N053.16.47.652 W004.35.27.585
  
Coastline 4015170 N053.24.53.454 W004.33.27.194
 N053.24.59.785 W004.33.27.194
 N053.25.01.900 W004.33.24.026
 N053.25.01.900 W004.33.12.408
 N053.24.59.785 W004.33.09.241
 N053.24.53.454 W004.33.09.241
 N053.24.52.397 W004.33.12.408
 N053.24.52.397 W004.33.24.026
 N053.24.53.454 W004.33.27.194
  
Coastline 4015170 N053.13.59.740 W004.32.44.953
 N053.14.06.071 W004.32.44.953
 N053.14.07.128 W004.32.41.784
 N053.14.07.128 W004.32.36.502
 N053.14.02.912 W004.32.26.999
 N053.13.59.740 W004.32.26.999
 N053.13.58.683 W004.32.30.168
 N053.13.58.683 W004.32.41.784
 N053.13.59.740 W004.32.44.953
  
Coastline 4015170 N053.11.14.986 W004.30.39.276
 N053.11.18.159 W004.30.39.276
 N053.11.19.216 W004.30.36.107
 N053.11.19.216 W004.30.29.771
 N053.11.18.159 W004.30.27.663
 N053.11.14.986 W004.30.27.663
 N053.11.13.943 W004.30.29.771
 N053.11.12.885 W004.30.36.107
 N053.11.14.986 W004.30.39.276
  
Coastline 4015170 N053.11.03.382 W004.29.50.698
 N053.11.05.483 W004.29.51.757
 N053.11.07.598 W004.29.48.585
 N053.11.07.598 W004.29.35.912
 N053.11.05.483 W004.29.32.744
 N053.11.03.382 W004.29.32.744
 N053.11.01.267 W004.29.35.912
 N053.11.01.267 W004.29.47.529
 N053.11.03.382 W004.29.50.698
  
Coastline 4015170 N053.09.11.431 W004.26.33.212
 N053.09.14.604 W004.26.33.212
 N053.09.16.705 W004.26.30.044
 N053.09.16.705 W004.26.18.426
 N053.09.14.604 W004.26.15.259
 N053.09.11.431 W004.26.15.259
 N053.09.10.374 W004.26.18.426
 N053.09.10.374 W004.26.30.044
 N053.09.11.431 W004.26.33.212
  
Coastline 4015170 N053.25.17.747 W004.20.45.762
 N053.25.24.078 W004.20.44.706
 N053.25.25.136 W004.20.42.593
 N053.25.25.136 W004.20.36.257
 N053.25.24.078 W004.20.33.090
 N053.25.17.747 W004.20.33.090
 N053.25.16.690 W004.20.36.257
 N053.25.16.690 W004.20.42.593
 N053.25.17.747 W004.20.45.762
  
Coastline 4015170 N053.22.54.115 W004.16.33.363
 N053.22.57.287 W004.16.33.363
 N053.23.01.503 W004.16.23.855
 N053.23.01.503 W004.16.17.519
 N053.22.59.388 W004.16.15.409
 N053.22.54.115 W004.16.15.409
 N053.22.52.000 W004.16.18.578
 N053.22.52.000 W004.16.30.194
 N053.22.54.115 W004.16.33.363
  
Coastline 4015170 N053.23.08.905 W004.15.33.163
 N053.23.15.236 W004.15.33.163
 N053.23.16.294 W004.15.29.994
 N053.23.16.294 W004.15.23.658
 N053.23.15.236 W004.15.20.491
 N053.23.08.905 W004.15.21.550
 N053.23.07.848 W004.15.24.718
 N053.23.07.848 W004.15.29.994
 N053.23.08.905 W004.15.33.163
  
Coastline 4015170 N053.21.29.630 W004.13.45.444
 N053.21.32.802 W004.13.44.390
 N053.21.34.904 W004.13.42.275
 N053.21.34.904 W004.13.35.941
 N053.21.32.802 W004.13.32.772
 N053.21.29.630 W004.13.32.772
 N053.21.28.573 W004.13.35.941
 N053.21.28.573 W004.13.42.275
 N053.21.29.630 W004.13.45.444
  
Coastline 4015170 N053.13.09.052 W004.11.09.146
 N053.13.10.109 W004.11.05.979
 N053.13.10.109 W004.10.54.361
 N053.13.09.052 W004.10.51.194
 N053.13.07.994 W004.10.54.361
 N053.13.06.937 W004.11.05.979
 N053.13.09.052 W004.11.09.146
  
Coastline 4015170 N053.13.36.504 W004.09.39.381
 N053.13.38.619 W004.09.39.381
 N053.13.40.734 W004.09.36.212
 N053.13.40.734 W004.09.29.873
 N053.13.38.619 W004.09.26.704
 N053.13.36.504 W004.09.26.704
 N053.13.34.389 W004.09.29.873
 N053.13.34.389 W004.09.36.212
 N053.13.36.504 W004.09.39.381
  
Coastline 4015170 N053.13.44.950 W004.09.33.045
 N053.13.48.122 W004.09.33.045
 N053.13.49.179 W004.09.29.873
 N053.13.49.179 W004.09.23.537
 N053.13.48.122 W004.09.21.427
 N053.13.44.950 W004.09.21.427
 N053.13.43.906 W004.09.24.596
 N053.13.43.906 W004.09.29.873
 N053.13.44.950 W004.09.33.045
  
Coastline 4015170 N053.13.53.409 W004.09.26.704
 N053.13.56.568 W004.09.26.704
 N053.13.58.683 W004.09.24.596
 N053.13.58.683 W004.09.18.260
 N053.13.56.568 W004.09.15.091
 N053.13.54.453 W004.09.15.091
 N053.13.52.352 W004.09.18.260
 N053.13.52.352 W004.09.24.596
 N053.13.53.409 W004.09.26.704
  
Coastline 4015170 N053.14.02.912 W004.09.15.091
 N053.14.05.027 W004.09.11.919
 N053.14.03.970 W004.09.05.583
 N053.14.02.912 W004.09.03.475
 N053.14.01.855 W004.09.06.642
 N053.14.01.855 W004.09.11.919
 N053.14.02.912 W004.09.15.091
  
Coastline 4015170 N053.18.54.380 W004.02.09.493
 N053.19.02.839 W004.02.09.493
 N053.19.16.558 W004.01.42.030
 N053.19.14.457 W004.01.20.909
 N053.19.09.170 W004.01.20.909
 N053.18.52.278 W004.01.53.648
 N053.18.52.278 W004.02.06.324
 N053.18.54.380 W004.02.09.493
  
Coastline 4015170  N053.15.13.282 W003.59.58.233
 N053.15.56.633 W003.57.58.978
 N053.16.4.811 W003.57.23.527
 N053.16.7.413 W003.56.14.287
 N053.16.16.209 W003.55.36.369
 N053.17.16.362 W003.53.23.959
 N053.17.28.593 W003.53.11.077
 N053.17.25.093 W003.52.58.759
 N053.17.25.146 W003.52.35.010
 N053.17.18.411 W003.52.4.469
 N053.17.47.183 W003.51.10.401
 N053.17.45.952 W003.50.41.401
 N053.17.38.926 W003.50.28.639
 N053.17.16.294 W003.50.24.941
 N053.17.6.840 W003.49.47.270
 N053.16.32.890 W003.49.2.273
 N053.15.12.779 W003.59.58.169

Coastline 4015170   N053.14.26.011 W003.48.52.440
 N053.14.39.723 W003.48.57.348
 N053.15.8.766 W003.49.27.517
 N053.15.54.209 W003.48.6.279
 N053.16.33.962 W003.47.55.377
 N053.16.53.066 W003.49.3.533
 N053.17.49.825 W003.50.33.397
 N053.19.12.379 W003.50.56.518
 N053.19.45.920 W003.52.7.552
 N053.19.47.397 W003.52.31.068
 N053.19.57.297 W003.52.50.343
 N053.20.15.369 W003.52.56.861
 N053.20.26.723 W003.52.29.657
 N053.20.27.168 W003.51.51.536
 N053.20.24.744 W003.51.49.110
 N053.20.27.722 W003.51.25.093
 N053.20.12.410 W003.50.31.202
 N053.20.16.553 W003.50.9.453
 N053.20.13.831 W003.49.59.566
 N053.19.53.917 W003.49.51.756
 N053.19.51.762 W003.49.29.215
 N053.19.31.389 W003.49.45.738
 N053.19.17.635 W003.48.59.466
 N053.14.21.164 W003.41.44.455
 N053.14.24.799 W003.48.51.227

Coastline 4015170  N052.51.27.455 W001.25.32.317
 N052.07.29.682 W001.19.30.554
 N051.59.57.517 W003.49.50.149
 N052.31.1.332 W003.49.47.793
 N052.31.38.944 W003.59.54.997
 N052.33.34.650 W003.56.22.406
 N052.33.36.987 W003.57.41.713
 N052.33.12.779 W004.00.6.812
 N052.43.32.978 W003.59.46.139
 N052.44.26.509 W003.57.24.732
 N052.51.33.761 W001.25.23.235

Coastline 4015170  N053.19.19.788 W003.48.58.702
 N053.19.41.298 W003.46.30.209
 N053.19.04.836 W003.45.48.335
 N053.18.50.271 W003.44.19.508
 N053.18.12.236 W003.44.12.648
 N053.17.41.498 W003.42.45.927
 N053.17.30.596 W003.36.15.158
 N053.19.01.832 W003.30.51.102
 N053.18.35.143 W003.30.39.457
 N053.18.03.970 W003.29.49.964
 N053.13.58.648 W003.04.44.339
 N053.14.06.172 W003.42.20.886
 N053.19.19.696 W003.49.00.762

Coastline 4015170  N053.14.1.556 W003.04.59.633
 N053.14.50.047 W003.07.04.836
 N053.15.27.707 W003.08.01.360
 N053.15.34.735 W003.08.51.437
 N053.16.22.116 W003.10.12.486
 N053.17.35.783 W003.12.07.914
 N053.18.13.860 W003.14.04.038
 N053.18.45.601 W003.14.54.638
 N053.18.51.670 W003.15.31.650
 N053.19.10.731 W003.15.54.762
 N053.19.31.295 W003.15.44.406
 N053.19.14.650 W003.16.10.790
 N053.19.13.725 W003.16.31.386
 N053.20.20.664 W003.18.38.912
 N053.21.20.623 W003.18.46.462
 N053.21.13.733 W003.20.11.034
 N053.20.40.546 W003.22.44.788
 N053.20.50.730 W003.22.59.016
 N053.20.41.078 W003.23.41.815
 N053.19.44.437 W003.27.30.289
 N053.19.46.044 W003.28.37.807
 N053.18.57.679 W003.30.30.814
 N053.18.36.272 W003.30.25.530
 N053.18.22.169 W003.29.55.274
 N053.18.02.646 W003.29.42.460
 N053.13.57.059 W003.04.56.478

Coastline 4015170  N053.13.57.333 W003.04.32.227
 N053.13.58.125 W003.04.48.446
 N053.14.00.091 W003.04.38.513
 N053.14.30.033 W003.05.45.063
 N053.14.34.984 W003.05.36.354
 N053.14.31.181 W003.05.30.785
 N053.14.30.794 W003.04.54.256
 N053.14.16.765 W003.04.50.793
 N053.14.09.575 W003.04.30.374
 N053.14.23.882 W003.04.38.963
 N053.14.35.874 W003.04.20.112
 N053.14.34.700 W003.04.46.264
 N053.14.52.502 W003.05.41.105
 N053.14.49.919 W003.05.53.506
 N053.15.03.418 W003.06.08.780
 N053.15.16.569 W003.05.46.681
 N053.15.16.118 W003.05.22.869
 N053.15.03.892 W003.05.01.817
 N053.15.03.717 W003.04.43.130
 N053.15.09.789 W003.04.32.018
 N053.15.08.062 W003.04.47.919
 N053.15.37.739 W003.06.00.376
 N053.15.36.087 W003.06.14.590
 N053.15.42.913 W003.06.20.540
 N053.16.08.670 W003.06.11.057
 N053.16.14.037 W003.05.53.069
 N053.16.13.522 W003.05.41.975
 N053.16.07.162 W003.05.36.932
 N053.16.11.976 W003.05.08.693
 N053.16.19.480 W003.05.33.393
 N053.16.32.665 W003.05.44.385
 N053.16.32.226 W003.05.31.604
 N053.16.40.438 W003.05.29.244
 N053.16.36.900 W003.05.17.770
 N053.16.39.752 W003.04.25.529
 N053.14.04.371 W003.03.03.184
 N053.13.38.107 W003.07.32.209
 N053.14.10.696 W003.08.13.641
 N053.13.59.409 W003.04.53.698
 N053.13.57.951 W003.04.29.759
 N053.13.56.830 W003.04.32.163

Coastline 4015170  N053.20.36.283 W001.36.35.302
 N053.55.51.016 W001.50.14.663
 N053.54.16.683 W002.46.16.606
 N053.15.39.569 W002.39.26.330
 N053.20.31.944 W001.36.26.854

Coastline 4015170  N053.15.50.220 W002.39.23.585
 N053.13.54.967 W003.03.21.025
 N053.16.39.923 W003.04.33.577
 N053.17.27.705 W002.50.57.304
 N053.17.34.068 W002.51.20.889
 N053.17.45.599 W002.51.11.984
 N053.17.51.138 W002.50.31.257
 N053.18.10.660 W002.51.04.784
 N053.18.20.869 W002.50.57.784
 N053.18.27.268 W002.50.25.450
 N053.18.23.985 W002.49.20.827
 N053.18.12.861 W002.48.25.574
 N053.17.49.372 W002.47.57.761
 N053.17.42.150 W002.47.25.783
 N053.18.35.970 W002.45.48.997
 N053.18.46.152 W002.45.15.067
 N053.19.25.167 W002.45.55.191
 N053.19.53.270 W002.46.2.872
 N053.20.11.783 W002.45.36.206
 N053.20.25.312 W002.45.37.909
 N053.20.41.181 W002.45.15.052
 N053.20.39.350 W002.43.10.546
 N053.21.21.759 W002.42.07.535
 N053.21.23.821 W002.41.49.153
 N053.21.15.156 W002.40.54.209
 N053.21.16.266 W002.40.29.494
 N053.15.50.220 W002.39.23.585
  
Coastline 4015170  N053.17.27.990 W002.51.18.518
 N053.17.33.168 W002.53.03.562
 N053.18.22.815 W002.55.33.972
 N053.19.36.329 W002.57.17.678
 N053.21.41.729 W002.59.02.739
 N053.21.39.760 W002.59.19.061
 N053.22.43.585 W003.00.25.093
 N053.23.57.380 W003.00.34.385
 N053.20.20.887 W003.08.51.153
 N053.18.56.495 W003.07.07.321
 N053.17.16.475 W003.06.36.085
 N053.16.40.300 W003.04.25.184
 N053.17.26.788 W002.51.17.745

Coastline 4015170  N053.23.56.127 W003.00.34.070
 N053.24.09.271 W003.00.51.632
 N053.24.32.996 W003.00.45.075
 N053.25.17.417 W003.01.39.450
 N053.26.19.441 W003.02.08.470
 N053.26.29.782 W003.02.32.042
 N053.26.15.019 W003.04.15.171
 N053.25.09.136 W003.06.22.617
 N053.24.37.176 W003.08.50.242
 N053.24.04.104 W003.10.32.127
 N053.23.42.784 W003.11.09.740
 N053.23.41.837 W003.11.30.831
 N053.23.23.007 W003.11.41.186
 N053.23.18.879 W003.12.16.722
 N053.22.15.547 W003.11.48.599
 N053.21.48.238 W003.11.08.043
 N053.21.41.046 W003.10.44.867
 N053.20.58.623 W003.10.02.409
 N053.20.20.675 W003.08.50.820
 N053.23.56.127 W003.00.34.070

Coastline 4015170  N053.22.54.085 W003.13.51.277
 N053.22.34.228 W003.13.17.502
 N053.22.34.152 W003.13.5.330
 N053.22.39.213 W003.13.3.534
 N053.22.54.066 W003.13.33.205
 N053.23.00.700 W003.13.33.345
 N053.23.04.573 W003.13.48.775
 N053.22.54.069 W003.13.51.622

Coastline 4015170  N053.25.54.337 W003.00.34.395
 N053.27.03.204 W002.41.28.464
 N053.20.03.132 W002.39.54.477
 N053.20.05.605 W002.40.45.162
 N053.21.21.289 W002.40.52.040
 N053.21.42.359 W002.41.51.694
 N053.21.15.489 W002.43.1.219
 N053.21.16.193 W002.43.38.425
 N053.20.50.667 W002.44.00.397
 N053.20.54.402 W002.44.40.636
 N053.20.56.994 W002.45.28.684
 N053.20.41.660 W002.46.10.498
 N053.19.31.894 W002.46.48.110
 N053.19.12.801 W002.47.25.474
 N053.19.52.146 W002.49.16.476
 N053.19.30.592 W002.50.13.415
 N053.19.34.793 W002.51.36.131
 N053.20.09.966 W002.53.31.911
 N053.21.50.406 W002.56.30.258
 N053.22.02.562 W002.57.16.859
 N053.22.37.031 W002.58.35.433
 N053.24.26.651 W003.00.12.749
 N053.25.55.124 W003.00.34.494

Coastline 4015170  N053.25.57.243 W003.00.37.153
 N053.27.18.528 W003.01.26.224
 N053.27.22.944 W003.02.05.616
 N053.28.01.529 W003.02.41.544
 N053.28.04.684 W003.02.05.694
 N053.29.50.255 W003.03.39.248
 N053.31.20.498 W003.04.00.967
 N053.31.13.077 W003.04.28.513
 N053.32.15.486 W003.05.59.221
 N053.33.28.356 W003.06.29.109
 N053.38.10.842 W003.02.38.004
 N053.41.16.126 W002.58.42.426
 N053.41.49.948 W002.58.46.685
 N053.41.53.104 W002.58.10.835
 N053.41.36.886 W002.57.53.259
 N053.41.57.185 W002.57.14.390
 N053.42.33.632 W002.44.17.079
 N053.26.49.724 W002.41.08.323
 N053.25.48.597 W003.00.23.119
 N053.25.55.706 W003.00.36.960

Coastline 4015170  N053.41.57.440 W002.57.15.482
 N053.39.18.430 W002.43.33.469
 N053.51.41.590 W002.45.00.416
 N053.44.29.631 W002.49.58.968
 N053.44.02.466 W002.51.15.084
 N053.43.07.351 W002.49.40.323
 N053.42.48.657 W002.49.37.969
 N053.43.54.446 W002.51.17.388
 N053.43.38.837 W002.53.24.669
 N053.43.29.848 W002.54.54.673
 N053.43.07.861 W002.54.15.450
 N053.43.20.001 W002.55.59.713
 N053.42.31.929 W002.56.56.626
 N053.42.13.797 W002.57.25.826
 N053.41.57.588 W002.57.12.186

Coastline 4015170  N053.54.23.905 W002.43.19.011
 N053.55.35.903 W003.00.21.052
 N053.55.18.925 W003.03.03.967
 N053.45.55.222 W003.03.33.315
 N053.44.33.368 W003.01.39.446
 N053.43.59.615 W002.58.24.252
 N053.44.00.497 W002.55.55.491
 N053.43.49.790 W002.54.52.653
 N053.44.30.132 W002.49.56.753
 N053.54.25.971 W002.43.16.035

Coastline 4015170  N053.22.22.955 W003.12.40.018
 N053.22.13.209 W003.12.36.720
 N053.22.14.226 W003.12.14.064
 N053.22.19.146 W003.12.14.684
 N053.22.24.093 W003.12.42.233

Coastline 4015170  N053.55.35.779 W002.59.49.527
 N053.50.50.357 W001.48.26.682
 N054.22.48.042 W001.59.34.303
 N054.05.13.026 W002.49.07.166
 N054.02.03.985 W002.55.09.165
 N053.57.47.423 W002.52.02.539
 N053.55.42.802 W002.59.49.100

Coastline 4015170  N052.27.18.942 W001.23.10.489
 N052.30.32.634 W000.33.10.191
 N054.31.08.805 W000.57.46.457
 N054.22.49.558 W001.59.51.855
 N052.27.26.204 W001.23.12.946