;Worthing CTA 1 Class A FL65-FL195
Worthing CTA                N051.22.47.000 E001.15.49.000 N051.21.30.000 E001.21.40.000
Worthing CTA                N051.21.30.000 E001.21.40.000 N051.21.06.000 E001.30.52.000
Worthing CTA                N051.21.06.000 E001.30.52.000 N051.20.53.000 E001.36.11.000
Worthing CTA                N051.19.29.000 E001.30.40.000 N051.14.22.000 E001.30.04.000
Worthing CTA                N051.14.22.000 E001.30.04.000 N051.06.00.000 E001.41.38.000
Worthing CTA                N051.06.00.000 E001.41.38.000 N051.03.54.000 E001.45.45.000
Worthing CTA                N051.03.54.000 E001.45.45.000 N051.00.00.000 E001.28.00.000
Worthing CTA                N051.00.00.000 E001.28.00.000 N050.58.42.000 E001.02.27.000
Worthing CTA                N050.58.42.000 E001.02.27.000 N051.22.47.000 E001.15.49.000

;Worthing CTA 2 Class A FL75-FL195
Worthing CTA                N050.40.00.000 W000.22.20.000 N050.40.00.000 E000.30.00.000
Worthing CTA                N050.40.00.000 E000.30.00.000 N050.45.07.000 E000.45.00.000
Worthing CTA                N050.45.07.000 E000.45.00.000 N050.58.42.000 E001.02.27.000
Worthing CTA                N050.58.42.000 E001.02.27.000 N051.00.00.000 E001.28.00.000
Worthing CTA                N051.00.00.000 E001.28.00.000 N050.40.00.000 E001.28.00.000
Worthing CTA                N050.40.00.000 E001.28.00.000 N050.03.20.000 W000.06.39.000
Worthing CTA                N050.03.20.000 W000.06.39.000 N050.10.27.000 W000.11.43.000
Worthing CTA                N050.10.27.000 W000.11.43.000 N050.13.47.000 W000.15.11.000
Worthing CTA                N050.13.47.000 W000.15.11.000 N050.17.17.000 W000.10.53.000
Worthing CTA                N050.17.17.000 W000.10.53.000 N050.26.05.000 W000.07.46.000
Worthing CTA                N050.26.05.000 W000.07.46.000 N050.40.00.000 W000.22.20.000

;Worthing CTA 3 Class A FL75-FL195
Worthing CTA                N051.19.29.000 E001.30.40.000 N051.12.51.000 E002.00.00.000
Worthing CTA                N051.12.51.000 E002.00.00.000 N051.07.00.000 E002.00.00.000
Worthing CTA                N051.07.00.000 E002.00.00.000 N051.03.54.000 E001.45.45.000
Worthing CTA                N051.03.54.000 E001.45.45.000 N051.06.00.000 E001.41.38.000
Worthing CTA                N051.06.00.000 E001.41.38.000 N051.14.22.000 E001.30.04.000
Worthing CTA                N051.14.22.000 E001.30.04.000 N051.19.29.000 E001.30.40.000

;Worthing CTA 5 Class A FL105-FL195
Worthing CTA                N051.20.53.000 E001.36.11.000 N051.19.48.000 E002.00.00.000
Worthing CTA                N051.19.48.000 E002.00.00.000 N051.12.51.000 E002.00.00.000
Worthing CTA                N051.12.51.000 E002.00.00.000 N051.18.26.000 E001.35.19.000
Worthing CTA                N051.18.26.000 E001.35.19.000 N051.20.53.000 E001.36.11.000