;Block_15c
REGIONNAME Heathrow
smrGrass N051.27.44.688 W000.26.19.756
N051.27.44.254 W000.26.19.756
N051.27.43.915 W000.26.19.145
N051.27.43.776 W000.26.18.272
N051.27.43.710 W000.26.16.410
N051.27.43.718 W000.26.13.902
N051.27.43.776 W000.26.11.907
N051.27.44.057 W000.26.10.931
N051.27.44.554 W000.26.10.161
N051.27.44.922 W000.26.10.062
N051.27.45.270 W000.26.10.400
N051.27.45.410 W000.26.11.805
N051.27.45.486 W000.26.13.503
N051.27.45.461 W000.26.15.678
N051.27.45.309 W000.26.17.925
N051.27.45.061 W000.26.19.126

;Parking_429
REGIONNAME Heathrow
Apron N051.27.45.167 W000.26.25.349
N051.27.45.267 W000.26.26.322
N051.27.45.267 W000.26.26.322
N051.27.45.610 W000.26.26.859
N051.27.45.610 W000.26.26.859
N051.27.45.616 W000.26.29.011
N051.27.45.616 W000.26.29.011
N051.27.44.589 W000.26.29.810
N051.27.44.589 W000.26.29.810
N051.27.44.283 W000.26.29.618
N051.27.44.283 W000.26.29.618
N051.27.44.098 W000.26.29.087
N051.27.44.098 W000.26.29.087
N051.27.43.256 W000.26.27.735
N051.27.43.256 W000.26.27.735
N051.27.42.858 W000.26.26.400
N051.27.42.858 W000.26.26.400
N051.27.44.868 W000.26.24.930

;Parking_430
REGIONNAME Heathrow
Apron N051.27.39.463 W000.26.26.631
N051.27.39.162 W000.26.26.124
N051.27.39.162 W000.26.26.124
N051.27.39.164 W000.26.22.995
N051.27.39.164 W000.26.22.995
N051.27.39.436 W000.26.22.623
N051.27.39.436 W000.26.22.623
N051.27.41.821 W000.26.22.621
N051.27.41.821 W000.26.22.621
N051.27.41.823 W000.26.26.630

;Parking_431
REGIONNAME Heathrow
Apron N051.27.41.822 W000.26.22.269
N051.27.39.410 W000.26.22.273
N051.27.39.410 W000.26.22.273
N051.27.39.177 W000.26.21.854
N051.27.39.177 W000.26.21.854
N051.27.39.191 W000.26.19.088
N051.27.39.191 W000.26.19.088
N051.27.39.404 W000.26.18.731
N051.27.39.404 W000.26.18.731
N051.27.39.728 W000.26.18.698
N051.27.39.728 W000.26.18.698
N051.27.41.660 W000.26.18.763
N051.27.41.660 W000.26.18.763
N051.27.41.831 W000.26.20.385

;Parking_432
REGIONNAME Heathrow
Apron N051.27.39.424 W000.26.18.406
N051.27.39.090 W000.26.17.919
N051.27.39.090 W000.26.17.919
N051.27.39.080 W000.26.16.555
N051.27.39.080 W000.26.16.555
N051.27.39.788 W000.26.14.833
N051.27.39.788 W000.26.14.833
N051.27.41.701 W000.26.14.881
N051.27.41.701 W000.26.14.881
N051.27.41.690 W000.26.18.390