"24" N051.30.14.980 E000.03.09.113 standHold
"23" N051.30.15.015 E000.03.07.053 standHold
"22" N051.30.15.089 E000.03.04.579 standHold
"21" N051.30.15.161 E000.03.02.524 standHold
"1" N051.30.15.721 E000.02.59.907 standHold
"2" N051.30.15.789 E000.02.58.015 standHold
"3" N051.30.15.854 E000.02.56.051 standHold
"4" N051.30.15.939 E000.02.53.928 standHold
"5" N051.30.15.994 E000.02.51.955 standHold
"6" N051.30.16.054 E000.02.49.904 standHold
"7" N051.30.16.113 E000.02.47.876 standHold
"8" N051.30.16.163 E000.02.45.845 standHold
"9" N051.30.16.241 E000.02.43.860 standHold
"10" N051.30.16.350 E000.02.41.762 standHold
"11" N051.30.16.634 E000.02.39.991 standHold
"12" N051.30.16.698 E000.02.37.016 standHold
"13" N051.30.16.835 E000.02.34.956 standHold
"14" N051.30.16.878 E000.02.32.999 standHold
"W" N051.30.18.732 E000.02.31.552 standHold
"Y" N051.30.18.272 E000.02.36.893 standHold
"A" N051.30.18.217 E000.02.40.857 standHold
"B" N051.30.18.196 E000.02.44.066 standHold
"C" N051.30.17.918 E000.02.57.828 standHold
"D" N051.30.16.393 E000.03.10.978 standHold
"K" N051.30.15.482 E000.03.47.260 standHold
"L" N051.30.16.174 E000.03.52.329 standHold
"M" N051.30.15.722 E000.03.58.136 standHold