;City
REGIONNAME City
blueBackground N051.30.55.000 E000.01.29.000
N051.30.55.000 E000.05.03.000
N051.29.46.000 E000.05.03.000
N051.29.46.000 E000.01.29.000

;Outer smrGrass
REGIONNAME City
smrGrass N051.30.22.800 E000.02.28.328
N051.30.19.893 E000.04.00.956
N051.30.19.893 E000.04.01.025
N051.30.19.883 E000.04.01.097
N051.30.19.846 E000.04.01.244
N051.30.19.797 E000.04.01.395
N051.30.19.728 E000.04.01.585
N051.30.19.647 E000.04.01.787
N051.30.19.562 E000.04.01.957
N051.30.19.486 E000.04.02.093
N051.30.19.361 E000.04.02.297
N051.30.19.239 E000.04.02.459
N051.30.19.122 E000.04.02.582
N051.30.18.906 E000.04.02.772
N051.30.18.625 E000.04.03.004
N051.30.18.076 E000.04.03.435
N051.30.17.310 E000.04.04.019
N051.30.16.345 E000.04.04.762
N051.30.16.286 E000.04.04.807
N051.30.16.237 E000.04.04.843
N051.30.16.187 E000.04.04.869
N051.30.16.138 E000.04.04.876
N051.30.16.089 E000.04.04.873
N051.30.16.030 E000.04.04.820
N051.30.15.072 E000.04.03.809
N051.30.15.043 E000.04.03.777
N051.30.15.021 E000.04.03.742
N051.30.15.013 E000.04.03.699
N051.30.15.006 E000.04.03.620
N051.30.15.007 E000.04.03.453
N051.30.15.200 E000.03.57.685
N051.30.14.555 E000.03.56.546
N051.30.14.429 E000.03.56.128
N051.30.14.645 E000.03.49.349
N051.30.14.799 E000.03.48.965
N051.30.15.508 E000.03.47.935
N051.30.16.681 E000.03.10.722
N051.30.15.865 E000.03.09.810
N051.30.16.986 E000.02.31.608
N051.30.17.272 E000.02.30.309
N051.30.17.402 E000.02.29.360
N051.30.17.144 E000.02.28.909
N051.30.16.957 E000.02.28.875
N051.30.16.746 E000.02.27.380
N051.30.16.786 E000.02.27.250
N051.30.16.846 E000.02.27.178
N051.30.16.908 E000.02.27.125
N051.30.16.993 E000.02.27.041
N051.30.17.063 E000.02.26.984
N051.30.16.898 E000.02.26.465
N051.30.16.893 E000.02.26.337
N051.30.16.893 E000.02.26.214
N051.30.16.900 E000.02.25.959
N051.30.16.909 E000.02.25.814
N051.30.16.909 E000.02.25.805
N051.30.16.928 E000.02.25.491
N051.30.16.947 E000.02.25.234
N051.30.16.988 E000.02.24.790
N051.30.17.025 E000.02.24.389
N051.30.17.060 E000.02.24.181
N051.30.17.060 E000.02.24.172
N051.30.17.099 E000.02.24.030
N051.30.17.151 E000.02.23.919
N051.30.17.230 E000.02.23.801
N051.30.17.306 E000.02.23.719
N051.30.17.389 E000.02.23.658
N051.30.17.518 E000.02.23.635
N051.30.17.612 E000.02.23.635
N051.30.21.777 E000.02.24.219
N051.30.21.689 E000.02.25.914
N051.30.22.751 E000.02.26.013
N051.30.22.687 E000.02.28.325
N051.30.22.800 E000.02.28.328


;Jet Centre
REGIONNAME City
smrBuilding N051.30.17.589 E000.02.24.211
N051.30.17.218 E000.02.24.175
N051.30.17.107 E000.02.26.411
N051.30.17.499 E000.02.26.428
N051.30.17.589 E000.02.24.211

;Outer Boundary
REGIONNAME City
smrTaxiway N051.30.19.086 E000.02.39.403
N051.30.19.163 E000.02.36.495
N051.30.21.119 E000.02.36.652
N051.30.21.053 E000.02.38.948
N051.30.20.648 E000.02.39.560
N051.30.18.806 E000.03.38.042
N051.30.18.861 E000.03.38.108
N051.30.18.908 E000.03.38.189
N051.30.18.959 E000.03.38.286
N051.30.18.996 E000.03.38.377
N051.30.19.037 E000.03.38.484
N051.30.19.077 E000.03.38.595
N051.30.19.107 E000.03.38.701
N051.30.19.138 E000.03.38.816
N051.30.19.159 E000.03.38.921
N051.30.19.176 E000.03.39.016
N051.30.19.186 E000.03.39.163
N051.30.19.187 E000.03.39.321
N051.30.19.178 E000.03.39.470
N051.30.19.158 E000.03.39.617
N051.30.19.144 E000.03.39.704
N051.30.19.129 E000.03.39.785
N051.30.19.097 E000.03.39.891
N051.30.19.055 E000.03.40.002
N051.30.19.001 E000.03.40.121
N051.30.18.959 E000.03.40.217
N051.30.18.916 E000.03.40.307
N051.30.18.871 E000.03.40.382
N051.30.18.819 E000.03.40.462
N051.30.18.760 E000.03.40.531
N051.30.18.715 E000.03.40.576
N051.30.18.230 E000.03.58.013
N051.30.18.556 E000.03.58.277
N051.30.18.438 E000.04.02.330
N051.30.16.465 E000.04.02.141
N051.30.16.630 E000.03.57.561
N051.30.16.628 E000.03.57.538
N051.30.16.623 E000.03.57.523
N051.30.16.616 E000.03.57.509
N051.30.16.601 E000.03.57.497
N051.30.16.574 E000.03.57.488
N051.30.16.545 E000.03.57.486
N051.30.16.480 E000.03.57.486
N051.30.15.629 E000.03.57.424
N051.30.15.554 E000.03.57.419
N051.30.15.492 E000.03.57.396
N051.30.15.427 E000.03.57.362
N051.30.15.371 E000.03.57.330
N051.30.15.287 E000.03.57.278
N051.30.15.196 E000.03.57.199
N051.30.15.094 E000.03.57.069
N051.30.14.997 E000.03.56.927
N051.30.14.899 E000.03.56.755
N051.30.14.808 E000.03.56.573
N051.30.14.736 E000.03.56.381
N051.30.14.684 E000.03.56.202
N051.30.14.651 E000.03.56.032
N051.30.14.625 E000.03.55.860
N051.30.14.612 E000.03.55.587
N051.30.14.611 E000.03.55.295
N051.30.14.617 E000.03.54.991
N051.30.14.673 E000.03.53.121
N051.30.14.755 E000.03.50.388
N051.30.14.770 E000.03.50.199
N051.30.14.789 E000.03.50.036
N051.30.14.811 E000.03.49.873
N051.30.14.839 E000.03.49.703
N051.30.14.878 E000.03.49.569
N051.30.14.895 E000.03.49.516
N051.30.14.976 E000.03.49.273
N051.30.15.069 E000.03.49.019
N051.30.15.185 E000.03.48.798
N051.30.15.285 E000.03.48.644
N051.30.15.434 E000.03.48.416
N051.30.15.638 E000.03.48.186
N051.30.16.789 E000.03.47.170
N051.30.16.963 E000.03.47.012
N051.30.17.071 E000.03.46.901
N051.30.17.163 E000.03.46.773
N051.30.17.249 E000.03.46.634
N051.30.17.306 E000.03.46.505
N051.30.17.337 E000.03.46.372
N051.30.17.358 E000.03.46.180
N051.30.17.377 E000.03.45.966
N051.30.17.433 E000.03.44.394
N051.30.17.548 E000.03.40.731
N051.30.17.546 E000.03.40.671
N051.30.17.546 E000.03.40.530
N051.30.17.504 E000.03.40.469
N051.30.17.464 E000.03.40.400
N051.30.17.433 E000.03.40.339
N051.30.17.383 E000.03.40.211
N051.30.17.353 E000.03.40.108
N051.30.17.318 E000.03.40.005
N051.30.17.293 E000.03.39.929
N051.30.17.267 E000.03.39.843
N051.30.17.232 E000.03.39.690
N051.30.17.212 E000.03.39.570
N051.30.17.199 E000.03.39.263
N051.30.17.206 E000.03.39.101
N051.30.17.218 E000.03.38.981
N051.30.17.248 E000.03.38.826
N051.30.17.280 E000.03.38.682
N051.30.17.326 E000.03.38.530
N051.30.17.402 E000.03.38.336
N051.30.17.458 E000.03.38.226
N051.30.17.509 E000.03.38.131
N051.30.17.565 E000.03.38.052
N051.30.17.653 E000.03.37.951
N051.30.18.406 E000.03.13.446
N051.30.16.898 E000.03.10.743
N051.30.13.131 E000.03.10.444
N051.30.13.407 E000.03.01.390
N051.30.12.035 E000.03.01.283
N051.30.12.053 E000.03.00.371
N051.30.11.815 E000.03.00.361
N051.30.11.880 E000.02.57.485
N051.30.14.382 E000.02.57.676
N051.30.14.398 E000.02.56.818
N051.30.14.544 E000.02.56.830
N051.30.14.987 E000.02.42.576
N051.30.15.135 E000.02.42.590
N051.30.15.251 E000.02.40.601
N051.30.15.268 E000.02.40.400
N051.30.15.028 E000.02.40.338
N051.30.15.159 E000.02.39.182
N051.30.15.349 E000.02.39.215
N051.30.15.370 E000.02.39.030
N051.30.15.702 E000.02.39.108
N051.30.15.737 E000.02.38.823
N051.30.15.489 E000.02.38.751
N051.30.15.625 E000.02.37.679
N051.30.15.372 E000.02.37.301
N051.30.15.404 E000.02.37.241
N051.30.15.441 E000.02.37.169
N051.30.15.480 E000.02.37.083
N051.30.15.533 E000.02.36.970
N051.30.15.571 E000.02.36.887
N051.30.15.609 E000.02.36.799
N051.30.15.647 E000.02.36.710
N051.30.15.688 E000.02.36.599
N051.30.15.739 E000.02.36.458
N051.30.15.775 E000.02.36.346
N051.30.15.805 E000.02.36.245
N051.30.15.844 E000.02.36.113
N051.30.15.875 E000.02.35.984
N051.30.15.898 E000.02.35.876
N051.30.15.920 E000.02.35.754
N051.30.15.940 E000.02.35.620
N051.30.15.956 E000.02.35.498
N051.30.15.970 E000.02.35.382
N051.30.15.987 E000.02.35.250
N051.30.15.995 E000.02.35.148
N051.30.16.004 E000.02.35.003
N051.30.16.009 E000.02.34.880
N051.30.16.017 E000.02.34.608
N051.30.16.028 E000.02.34.280
N051.30.16.036 E000.02.33.881
N051.30.16.052 E000.02.33.394
N051.30.16.067 E000.02.32.924
N051.30.16.088 E000.02.32.542
N051.30.16.107 E000.02.32.254
N051.30.16.105 E000.02.32.123
N051.30.16.111 E000.02.31.716
N051.30.16.592 E000.02.31.758
N051.30.16.589 E000.02.31.607
N051.30.16.598 E000.02.31.496
N051.30.16.616 E000.02.31.421
N051.30.16.655 E000.02.31.326
N051.30.16.709 E000.02.31.235
N051.30.16.757 E000.02.31.157
N051.30.16.796 E000.02.31.110
N051.30.16.843 E000.02.31.043
N051.30.16.881 E000.02.30.962
N051.30.16.923 E000.02.30.874
N051.30.16.960 E000.02.30.776
N051.30.16.993 E000.02.30.673
N051.30.17.011 E000.02.30.577
N051.30.17.019 E000.02.30.461
N051.30.17.022 E000.02.30.336
N051.30.17.016 E000.02.30.239
N051.30.17.000 E000.02.30.139
N051.30.16.981 E000.02.30.050
N051.30.16.975 E000.02.29.987
N051.30.16.987 E000.02.29.914
N051.30.17.017 E000.02.29.824
N051.30.17.072 E000.02.29.701
N051.30.17.128 E000.02.29.588
N051.30.17.196 E000.02.29.485
N051.30.17.287 E000.02.29.403
N051.30.17.354 E000.02.29.367
N051.30.17.435 E000.02.29.354
N051.30.17.515 E000.02.29.347
N051.30.17.585 E000.02.29.355
N051.30.17.707 E000.02.28.843
N051.30.17.776 E000.02.28.747
N051.30.17.652 E000.02.28.494
N051.30.17.975 E000.02.28.076
N051.30.18.089 E000.02.28.337
N051.30.18.138 E000.02.28.273
N051.30.18.141 E000.02.28.004
N051.30.17.711 E000.02.26.336
N051.30.17.543 E000.02.26.463
N051.30.17.526 E000.02.26.424
N051.30.17.628 E000.02.24.020
N051.30.19.881 E000.02.24.214
N051.30.19.656 E000.02.30.981
N051.30.18.509 E000.02.30.912
N051.30.18.453 E000.02.31.028
N051.30.18.393 E000.02.31.184
N051.30.18.338 E000.02.31.359
N051.30.18.279 E000.02.31.556
N051.30.18.213 E000.02.31.776
N051.30.18.143 E000.02.32.040
N051.30.18.099 E000.02.32.235
N051.30.18.073 E000.02.32.386
N051.30.18.050 E000.02.32.542
N051.30.18.035 E000.02.32.767
N051.30.18.034 E000.02.32.776
N051.30.18.027 E000.02.33.033
N051.30.18.020 E000.02.33.327
N051.30.17.844 E000.02.38.822
N051.30.18.098 E000.02.39.325
N051.30.19.086 E000.02.39.403

;Area 1
REGIONNAME City
smrGrass N051.30.19.126 E000.02.40.193
N051.30.19.406 E000.02.40.906
N051.30.19.366 E000.02.42.418
N051.30.19.332 E000.02.42.446
N051.30.19.262 E000.02.42.491
N051.30.19.195 E000.02.42.524
N051.30.19.146 E000.02.42.532
N051.30.19.047 E000.02.42.536
N051.30.18.054 E000.02.42.480
N051.30.17.952 E000.02.42.468
N051.30.17.868 E000.02.42.459
N051.30.17.785 E000.02.42.436
N051.30.17.713 E000.02.42.394
N051.30.17.630 E000.02.42.306
N051.30.17.574 E000.02.42.221
N051.30.17.522 E000.02.42.115
N051.30.17.495 E000.02.41.986
N051.30.17.490 E000.02.41.846
N051.30.17.494 E000.02.41.664
N051.30.17.512 E000.02.41.500
N051.30.17.547 E000.02.41.312
N051.30.17.600 E000.02.41.134
N051.30.17.687 E000.02.40.929
N051.30.17.810 E000.02.40.696
N051.30.17.924 E000.02.40.537
N051.30.18.019 E000.02.40.424
N051.30.18.110 E000.02.40.333
N051.30.18.219 E000.02.40.260
N051.30.18.353 E000.02.40.191
N051.30.18.505 E000.02.40.162
N051.30.18.623 E000.02.40.161
N051.30.18.940 E000.02.40.176
N051.30.19.126 E000.02.40.193

;Area 2
REGIONNAME City
smrGrass N051.30.19.333 E000.02.44.040
N051.30.18.976 E000.02.55.660
N051.30.18.967 E000.02.55.709
N051.30.18.950 E000.02.55.765
N051.30.18.913 E000.02.55.854
N051.30.18.865 E000.02.55.922
N051.30.18.818 E000.02.55.984
N051.30.18.768 E000.02.56.043
N051.30.18.729 E000.02.56.080
N051.30.18.674 E000.02.56.125
N051.30.18.625 E000.02.56.161
N051.30.18.546 E000.02.56.206
N051.30.18.491 E000.02.56.220
N051.30.18.407 E000.02.56.233
N051.30.18.355 E000.02.56.234
N051.30.17.753 E000.02.56.206
N051.30.17.693 E000.02.56.203
N051.30.17.634 E000.02.56.193
N051.30.17.592 E000.02.56.182
N051.30.17.589 E000.02.56.181
N051.30.17.543 E000.02.56.158
N051.30.17.488 E000.02.56.129
N051.30.17.441 E000.02.56.088
N051.30.17.387 E000.02.56.038
N051.30.17.327 E000.02.55.979
N051.30.17.273 E000.02.55.905
N051.30.17.215 E000.02.55.811
N051.30.17.166 E000.02.55.690
N051.30.17.127 E000.02.55.546
N051.30.17.086 E000.02.55.264
N051.30.17.067 E000.02.55.008
N051.30.17.052 E000.02.54.798
N051.30.17.352 E000.02.44.735
N051.30.17.358 E000.02.44.467
N051.30.17.374 E000.02.44.324
N051.30.17.393 E000.02.44.196
N051.30.17.417 E000.02.44.086
N051.30.17.453 E000.02.43.973
N051.30.17.496 E000.02.43.836
N051.30.17.566 E000.02.43.712
N051.30.17.618 E000.02.43.637
N051.30.17.693 E000.02.43.536
N051.30.17.762 E000.02.43.475
N051.30.17.828 E000.02.43.431
N051.30.17.898 E000.02.43.397
N051.30.17.958 E000.02.43.376
N051.30.18.009 E000.02.43.368
N051.30.18.078 E000.02.43.362
N051.30.18.247 E000.02.43.356
N051.30.18.474 E000.02.43.350
N051.30.18.586 E000.02.43.356
N051.30.18.674 E000.02.43.367
N051.30.18.761 E000.02.43.381
N051.30.18.850 E000.02.43.406
N051.30.18.917 E000.02.43.444
N051.30.19.005 E000.02.43.503
N051.30.19.086 E000.02.43.582
N051.30.19.169 E000.02.43.693
N051.30.19.228 E000.02.43.798
N051.30.19.281 E000.02.43.895
N051.30.19.317 E000.02.43.979
N051.30.19.333 E000.02.44.040

;Area 3
REGIONNAME City
smrGrass N051.30.18.000 E000.02.57.142
N051.30.18.291 E000.02.57.158
N051.30.18.341 E000.02.57.167
N051.30.18.428 E000.02.57.196
N051.30.18.504 E000.02.57.240
N051.30.18.568 E000.02.57.299
N051.30.18.633 E000.02.57.364
N051.30.18.692 E000.02.57.446
N051.30.18.745 E000.02.57.524
N051.30.18.793 E000.02.57.608
N051.30.18.822 E000.02.57.676
N051.30.18.855 E000.02.57.793
N051.30.18.871 E000.02.57.906
N051.30.18.875 E000.02.58.011
N051.30.18.875 E000.02.58.134
N051.30.18.873 E000.02.58.234
N051.30.18.513 E000.03.10.184
N051.30.18.506 E000.03.10.317
N051.30.18.500 E000.03.10.426
N051.30.18.483 E000.03.10.514
N051.30.18.465 E000.03.10.581
N051.30.18.441 E000.03.10.638
N051.30.18.411 E000.03.10.683
N051.30.18.372 E000.03.10.735
N051.30.18.325 E000.03.10.773
N051.30.18.268 E000.03.10.810
N051.30.18.218 E000.03.10.820
N051.30.18.146 E000.03.10.836
N051.30.18.072 E000.03.10.828
N051.30.18.010 E000.03.10.812
N051.30.17.936 E000.03.10.785
N051.30.17.856 E000.03.10.731
N051.30.17.769 E000.03.10.657
N051.30.17.672 E000.03.10.546
N051.30.17.581 E000.03.10.420
N051.30.17.108 E000.03.09.613
N051.30.17.386 E000.03.01.452
N051.30.17.042 E000.03.01.297
N051.30.17.044 E000.03.01.098
N051.30.17.111 E000.03.00.936
N051.30.17.212 E000.03.00.939
N051.30.17.299 E000.02.57.758
N051.30.17.313 E000.02.57.592
N051.30.17.332 E000.02.57.476
N051.30.17.369 E000.02.57.373
N051.30.17.418 E000.02.57.282
N051.30.17.474 E000.02.57.187
N051.30.17.550 E000.02.57.134
N051.30.17.613 E000.02.57.124
N051.30.17.777 E000.02.57.123
N051.30.18.000 E000.02.57.142

;Area 4
REGIONNAME City
smrGrass N051.30.17.259 E000.03.48.662
N051.30.17.083 E000.03.54.753
N051.30.17.075 E000.03.54.815
N051.30.17.062 E000.03.54.850
N051.30.17.039 E000.03.54.875
N051.30.17.008 E000.03.54.880
N051.30.16.968 E000.03.54.878
N051.30.16.929 E000.03.54.859
N051.30.16.850 E000.03.54.814
N051.30.16.780 E000.03.54.757
N051.30.16.646 E000.03.54.640
N051.30.16.533 E000.03.54.491
N051.30.16.385 E000.03.54.260
N051.30.15.819 E000.03.53.256
N051.30.15.492 E000.03.52.644
N051.30.15.459 E000.03.52.546
N051.30.15.419 E000.03.52.395
N051.30.15.373 E000.03.52.200
N051.30.15.341 E000.03.52.024
N051.30.15.315 E000.03.51.832
N051.30.15.300 E000.03.51.646
N051.30.15.291 E000.03.51.432
N051.30.15.289 E000.03.51.319
N051.30.15.296 E000.03.51.104
N051.30.15.305 E000.03.50.871
N051.30.15.318 E000.03.50.676
N051.30.15.338 E000.03.50.431
N051.30.15.360 E000.03.50.223
N051.30.15.390 E000.03.50.046
N051.30.15.435 E000.03.49.877
N051.30.15.475 E000.03.49.733
N051.30.15.537 E000.03.49.573
N051.30.15.614 E000.03.49.430
N051.30.15.718 E000.03.49.259
N051.30.15.939 E000.03.48.992
N051.30.16.380 E000.03.48.605
N051.30.16.632 E000.03.48.510
N051.30.16.763 E000.03.48.470
N051.30.16.902 E000.03.48.443
N051.30.16.991 E000.03.48.451
N051.30.17.090 E000.03.48.500
N051.30.17.172 E000.03.48.548
N051.30.17.220 E000.03.48.591
N051.30.17.259 E000.03.48.662

;Area 5
REGIONNAME City
smrGrass N051.30.15.205 E000.03.53.550
N051.30.16.388 E000.03.55.615
N051.30.16.494 E000.03.55.776
N051.30.16.583 E000.03.55.866
N051.30.16.676 E000.03.55.934
N051.30.16.773 E000.03.55.990
N051.30.16.823 E000.03.56.004
N051.30.16.874 E000.03.56.012
N051.30.16.942 E000.03.56.015
N051.30.16.692 E000.03.56.509
N051.30.16.612 E000.03.56.536
N051.30.16.481 E000.03.56.559
N051.30.16.333 E000.03.56.565
N051.30.16.127 E000.03.56.556
N051.30.15.979 E000.03.56.538
N051.30.15.831 E000.03.56.491
N051.30.15.715 E000.03.56.449
N051.30.15.643 E000.03.56.394
N051.30.15.561 E000.03.56.314
N051.30.15.471 E000.03.56.202
N051.30.15.366 E000.03.56.073
N051.30.15.326 E000.03.56.009
N051.30.15.298 E000.03.55.929
N051.30.15.271 E000.03.55.813
N051.30.15.248 E000.03.55.669
N051.30.15.223 E000.03.55.443
N051.30.15.208 E000.03.55.274
N051.30.15.197 E000.03.55.101
N051.30.15.191 E000.03.54.738
N051.30.15.195 E000.03.54.446
N051.30.15.203 E000.03.54.050
N051.30.15.205 E000.03.53.550

;14 11 Area
REGIONNAME City
smrApron N051.30.17.086 E000.02.32.034
N051.30.17.074 E000.02.32.246
N051.30.17.065 E000.02.32.454
N051.30.17.063 E000.02.32.687
N051.30.17.051 E000.02.32.987
N051.30.17.046 E000.02.33.235
N051.30.17.035 E000.02.33.511
N051.30.17.024 E000.02.33.767
N051.30.16.192 E000.02.34.132
N051.30.17.021 E000.02.34.005
N051.30.17.019 E000.02.34.097
N051.30.17.005 E000.02.34.677
N051.30.16.969 E000.02.35.763
N051.30.16.085 E000.02.36.142
N051.30.16.963 E000.02.35.991
N051.30.16.957 E000.02.36.227
N051.30.16.948 E000.02.36.498
N051.30.16.933 E000.02.36.729
N051.30.16.933 E000.02.36.735
N051.30.16.913 E000.02.36.886
N051.30.16.880 E000.02.37.081
N051.30.16.845 E000.02.37.258
N051.30.16.792 E000.02.37.449
N051.30.16.736 E000.02.37.598
N051.30.16.703 E000.02.37.665
N051.30.16.634 E000.02.37.808
N051.30.16.532 E000.02.38.019
N051.30.15.690 E000.02.37.684
N051.30.15.479 E000.02.37.323
N051.30.15.507 E000.02.37.267
N051.30.15.552 E000.02.37.168
N051.30.15.599 E000.02.37.072
N051.30.15.642 E000.02.36.968
N051.30.15.692 E000.02.36.856
N051.30.15.732 E000.02.36.756
N051.30.15.772 E000.02.36.640
N051.30.15.809 E000.02.36.536
N051.30.15.841 E000.02.36.436
N051.30.15.882 E000.02.36.319
N051.30.15.913 E000.02.36.208
N051.30.15.946 E000.02.36.070
N051.30.15.969 E000.02.35.922
N051.30.16.004 E000.02.35.728
N051.30.16.038 E000.02.35.515
N051.30.16.070 E000.02.35.298
N051.30.16.086 E000.02.35.004
N051.30.16.091 E000.02.34.745
N051.30.16.110 E000.02.34.171
N051.30.16.177 E000.02.32.310
N051.30.17.086 E000.02.32.034

;11 1 Area
REGIONNAME City
smrApron N051.30.16.810 E000.02.39.266
N051.30.16.807 E000.02.39.374
N051.30.16.804 E000.02.39.487
N051.30.16.799 E000.02.39.569
N051.30.16.785 E000.02.39.706
N051.30.16.765 E000.02.39.864
N051.30.16.735 E000.02.40.059
N051.30.16.703 E000.02.40.273
N051.30.16.673 E000.02.40.447
N051.30.16.631 E000.02.40.653
N051.30.16.600 E000.02.40.786
N051.30.15.936 E000.02.40.830
N051.30.16.559 E000.02.40.979
N051.30.16.524 E000.02.41.148
N051.30.16.503 E000.02.41.285
N051.30.16.484 E000.02.41.429
N051.30.16.472 E000.02.41.565
N051.30.16.462 E000.02.41.766
N051.30.16.457 E000.02.41.966
N051.30.16.450 E000.02.42.258
N051.30.16.440 E000.02.42.539
N051.30.16.431 E000.02.42.747
N051.30.15.685 E000.02.42.794
N051.30.16.425 E000.02.42.956
N051.30.16.409 E000.02.43.540
N051.30.16.390 E000.02.44.091
N051.30.16.367 E000.02.44.761
N051.30.15.632 E000.02.44.827
N051.30.16.360 E000.02.44.998
N051.30.16.310 E000.02.46.804
N051.30.15.568 E000.02.46.845
N051.30.16.298 E000.02.47.003
N051.30.16.241 E000.02.48.832
N051.30.15.499 E000.02.48.876
N051.30.16.235 E000.02.49.022
N051.30.16.177 E000.02.50.858
N051.30.15.436 E000.02.50.899
N051.30.16.168 E000.02.51.047
N051.30.16.115 E000.02.52.863
N051.30.15.396 E000.02.52.910
N051.30.16.108 E000.02.53.084
N051.30.16.054 E000.02.54.877
N051.30.15.320 E000.02.54.947
N051.30.16.044 E000.02.55.122
N051.30.15.987 E000.02.56.904
N051.30.15.263 E000.02.56.957
N051.30.15.980 E000.02.57.123
N051.30.15.922 E000.02.58.924
N051.30.15.194 E000.02.58.985
N051.30.15.919 E000.02.59.152
N051.30.15.868 E000.03.00.754
N051.30.15.790 E000.03.00.689
N051.30.14.972 E000.03.00.615
N051.30.15.560 E000.02.41.669
N051.30.15.570 E000.02.41.412
N051.30.15.572 E000.02.41.353
N051.30.15.574 E000.02.41.303
N051.30.15.582 E000.02.41.256
N051.30.15.597 E000.02.41.202
N051.30.15.620 E000.02.41.144
N051.30.15.648 E000.02.41.092
N051.30.15.692 E000.02.41.016
N051.30.15.716 E000.02.40.979
N051.30.15.733 E000.02.40.951
N051.30.15.755 E000.02.40.906
N051.30.15.756 E000.02.40.902
N051.30.15.776 E000.02.40.844
N051.30.15.881 E000.02.40.562
N051.30.15.917 E000.02.40.453
N051.30.15.938 E000.02.40.380
N051.30.15.950 E000.02.40.305
N051.30.15.964 E000.02.40.206
N051.30.15.984 E000.02.40.074
N051.30.16.005 E000.02.39.923
N051.30.16.032 E000.02.39.781
N051.30.16.071 E000.02.39.620
N051.30.16.110 E000.02.39.489
N051.30.16.160 E000.02.39.354
N051.30.16.223 E000.02.39.200
N051.30.16.810 E000.02.39.266

;21 Area
REGIONNAME City
smrApron N051.30.15.354 E000.03.01.800
N051.30.15.292 E000.03.03.565
N051.30.14.042 E000.03.03.476
N051.30.14.092 E000.03.01.954
N051.30.14.437 E000.03.01.458
N051.30.15.190 E000.03.01.511
N051.30.15.354 E000.03.01.800

;22 Area
REGIONNAME City
smrApron N051.30.15.287 E000.03.03.689
N051.30.15.245 E000.03.05.205
N051.30.14.891 E000.03.05.713
N051.30.14.279 E000.03.05.659
N051.30.13.990 E000.03.05.117
N051.30.14.038 E000.03.03.612
N051.30.15.287 E000.03.03.689

;23 Area
REGIONNAME City
smrApron N051.30.15.213 E000.03.06.043
N051.30.15.152 E000.03.08.072
N051.30.13.906 E000.03.07.972
N051.30.13.967 E000.03.05.940
N051.30.15.213 E000.03.06.043

;24 Area
REGIONNAME City
smrApron N051.30.15.140 E000.03.08.225
N051.30.15.094 E000.03.09.745
N051.30.14.760 E000.03.10.224
N051.30.14.159 E000.03.10.182
N051.30.13.842 E000.03.09.650
N051.30.13.896 E000.03.08.137
N051.30.15.140 E000.03.08.225