CIRCLE_SECTORLINE:Only PFGND:EGPF:1.5
DISPLAY:Galloway:Only PFGND 1:Only PFGND 2
DISPLAY:Talla:Only PFGND 1:Only PFGND 2
DISPLAY:Montrose:Only PFGND 1:Only PFGND 2
DISPLAY:Central:Only PFGND 1:Only PFGND 2

CIRCLE_SECTORLINE:Only PFTWR:EGPF:2.5
DISPLAY:Galloway:Only PFTWR 1:Only PFTWR 2
DISPLAY:Talla:Only PFTWR 1:Only PFTWR 2
DISPLAY:Montrose:Only PFTWR 1:Only PFTWR 2
DISPLAY:Central:Only PFTWR 1:Only PFTWR 2

CIRCLE_SECTORLINE:Only PFAPP:EGPF:5
DISPLAY:Galloway:Galloway:Only PFAPP
DISPLAY:Talla:Talla:Only PFAPP
DISPLAY:Montrose:Montrose:Only PFAPP
DISPLAY:Central:Only PFAPP

CIRCLE_SECTORLINE:PFTWR:EGPF:2.5
DISPLAY:PFAPP:PFAPP:PFTWR
DISPLAY:PFTPP:PFAPP:PFTWR

;EGPF_APP Outline
SECTORLINE:PFAPP_PHAPP_1
DISPLAY:PFAPP:PFAPP:PHAPP
DISPLAY:PHAPP:PHAPP:PFAPP
COORD:N056.13.58.500:W003.44.57.050
COORD:N056.04.17.987:W003.50.25.566

SECTORLINE:PFAPP_PHAPP_2
DISPLAY:PFAPP:PFAPP:PHAPP
DISPLAY:PHAPP:PHAPP:PFAPP
COORD:N056.04.17.987:W003.50.25.566
COORD:N055.57.24.009:W003.54.17.008
COORD:N055.48.06.000:W003.54.11.000
COORD:N055.41.25.000:W003.43.24.000

SECTORLINE:PFAPP_PKAPP
DISPLAY:PFAPP:PFAPP:PKAPP
DISPLAY:PKAPP:PFAPP:PKAPP
DISPLAY:PKAPP:Galloway:PKAPP
COORD:N055.27.42.875:W004.14.01.685
COORD:N055.43.34.113:W004.59.58.684

SECTORLINE:PFAPP_SCE
DISPLAY:PFAPP:Talla:PFAPP
COORD:N055.41.25.000:W003.43.24.000
COORD:N055.33.44.392:W004.00.41.094

SECTORLINE:PFAPP_Galloway
DISPLAY:PFAPP:Galloway:PFAPP
COORD:N055.33.44.392:W004.00.41.094
COORD:N055.27.42.875:W004.14.01.685

SECTORLINE:PFAPP_PXE_1
DISPLAY:PFAPP:Scottish AC East:PFAPP
COORD:N056.04.17.987:W003.50.25.566
COORD:N056.02.22.018:W004.05.18.523
COORD:N056.07.00.022:W004.09.10.024
COORD:N056.14.00.525:W004.09.25.880

SECTORLINE:PFAPP_PXE_2
DISPLAY:PFAPP:Scottish AC East:PFAPP
COORD:N056.13.58.500:W003.44.57.050
COORD:N056.14.00.525:W004.09.25.880

SECTORLINE:PFAPP_PXE_3
DISPLAY:PFAPP:Scottish AC East:PFAPP
COORD:N056.14.0.525:W004.09.25.880
COORD:N056.00.47.332:W004.42.5.673

SECTORLINE:PFAPP_PXW
DISPLAY:PFAPP:Central:PFAPP
COORD:N056.00.47.332:W004.42.05.673
COORD:N056.00.00.289:W004.43.59.839
COORD:N055.49.59.535:W005.00.04.502
COORD:N055.43.34.113:W004.59.58.684

;Director 23
SECTORLINE:PFFIN_W
DISPLAY:PFAPP:PFAPP:PFFIN_W
DISPLAY:PFFIN_W:PFAPP:PFFIN_W
COORD:N055.59.46.047:W004.34.42.223
COORD:N056.03.57.199:W004.19.53.387
COORD:N056.01.26.898:W004.04.28.407
COORD:N055.54.14.089:W003.54.09.119
COORD:N055.53.59.116:W004.22.38.443
COORD:N055.59.46.047:W004.34.42.223

;Director 05
SECTORLINE:PFFIN_E
DISPLAY:PFAPP:PFFIN_E:PFAPP
DISPLAY:PFFIN_E:PFFIN_E:PFAPP
COORD:N055.50.25.918:W004.29.30.820
COORD:N055.39.48.176:W004.16.55.914
COORD:N055.36.58.661:W004.28.43.004
COORD:N055.44.27.106:W004.50.30.349
COORD:N055.45.58.657:W004.49.46.800
COORD:N055.54.58.369:W004.51.55.908
COORD:N055.50.25.918:W004.29.30.820