EGCC Manchester SMAA        S999.00.00.000 E999.00.00.000 S999.00.00.000 E999.00.00.000
							N053.30.37.000 W002.37.46.000 N053.33.51.000 W002.09.41.000
                            N053.33.51.000 W002.09.41.000 N053.25.41.000 W001.58.38.000
                            N053.25.41.000 W001.58.38.000 N053.23.50.000 W001.59.54.000
                            N053.23.50.000 W001.59.54.000 N053.16.50.000 W002.07.30.000
                            N053.16.50.000 W002.07.30.000 N053.16.18.471 W002.07.52.841
                            N053.16.18.471 W002.07.52.841 N053.15.48.155 W002.08.06.362
                            N053.15.48.155 W002.08.06.362 N053.15.16.895 W002.08.10.873
                            N053.15.16.895 W002.08.10.873 N053.14.45.641 W002.08.06.242
                            N053.14.45.641 W002.08.06.242 N053.14.15.344 W002.07.52.615
                            N053.14.15.344 W002.07.52.615 N053.13.46.921 W002.07.30.412
                            N053.13.46.921 W002.07.30.412 N053.13.21.237 W002.07.00.309
                            N053.13.21.237 W002.07.00.309 N053.12.59.069 W002.06.23.225
                            N053.12.59.069 W002.06.23.225 N053.12.41.089 W002.05.40.285
                            N053.12.41.089 W002.05.40.285 N053.12.27.843 W002.04.52.792
                            N053.12.27.843 W002.04.52.792 N053.12.17.000 W002.04.00.000
                            N053.12.27.843 W002.04.52.792 N053.12.17.000 W002.04.00.000
                            N053.12.17.000 W002.04.00.000 N053.07.06.000 W002.07.23.000
                            N053.07.06.000 W002.07.23.000 N053.11.08.000 W002.37.44.000
                            N053.11.08.000 W002.37.44.000 N053.30.37.000 W002.37.46.000
                            N053.33.51.000 W002.09.41.000 N053.34.30.000 W002.04.00.000
                            N053.34.30.000 W002.04.00.000 N053.29.06.000 W001.56.17.000
                            N053.29.06.000 W001.56.17.000 N053.25.41.000 W001.58.38.000
                            N053.25.41.000 W001.58.38.000 N053.33.51.000 W002.09.41.000
                            N053.16.50.000 W002.07.30.000 N053.23.50.000 W001.59.54.000
                            N053.23.50.000 W001.59.54.000 N053.22.07.000 W001.57.35.000
                            N053.22.07.000 W001.57.35.000 N053.12.17.000 W002.04.00.000
                            N053.23.50.000 W001.59.54.000 N053.29.06.000 W001.56.17.000
                            N053.29.06.000 W001.56.17.000 N053.27.30.000 W001.54.00.000
                            N053.27.30.000 W001.54.00.000 N053.22.07.000 W001.57.35.000
                            N053.22.07.000 W001.57.35.000 N053.23.50.000 W001.59.54.000