EGPK Prestwick SMAA                 S999.00.00.000 E999.00.00.000 S999.00.00.000 E999.00.00.000
							N055.45.33.998 W004.35.39.998 N055.45.20.239 W004.40.17.724
							N055.45.20.239 W004.40.17.724 N055.44.39.385 W004.44.46.853
							N055.44.39.385 W004.44.46.853 N055.43.32.702 W004.48.59.068
							N055.43.32.702 W004.48.59.068 N055.42.02.251 W004.52.46.603
							N055.42.02.251 W004.52.46.603 N055.40.10.822 W004.56.02.493
							N055.40.10.822 W004.56.02.493 N055.38.37.000 W004.57.58.000
							N055.23.01.863 W004.58.32.045 N055.24.11.000 W004.59.30.000
							N055.23.01.863 W004.58.32.045 N055.20.53.820 W004.55.52.552
							N055.20.53.820 W004.55.52.552 N055.19.03.384 W004.52.36.663  
							N055.19.03.384 W004.52.36.663 N055.17.33.866 W004.48.50.326  
							N055.17.33.866 W004.48.50.326 N055.16.27.943 W004.44.40.364  
							N055.16.27.943 W004.44.40.364 N055.15.47.586 W004.40.14.272  
							N055.15.47.586 W004.40.14.272 N055.15.33.998 W004.35.39.998  
							N055.15.33.998 W004.35.39.998 N055.16.18.000 W004.27.42.000  
							N055.21.17.000 W004.14.59.000 N055.23.01.863 W004.12.47.952  
							N055.23.01.863 W004.12.47.952 N055.25.23.663 W004.10.49.755  
							N055.25.23.663 W004.10.49.755 N055.27.54.947 W004.09.36.542  
							N055.27.54.947 W004.09.36.542 N055.30.31.141 W004.09.10.673  
							N055.30.31.141 W004.09.10.673 N055.33.07.507 W004.09.33.090  
							N055.33.07.507 W004.09.33.090 N055.35.39.287 W004.10.43.267  
							N055.35.39.287 W004.10.43.267 N055.38.01.847 W004.12.39.211  
							N055.38.01.847 W004.12.39.211 N055.40.10.822 W004.15.17.504  
							N055.40.10.822 W004.15.17.504 N055.42.02.251 W004.18.33.393  
							N055.42.02.251 W004.18.33.393 N055.43.32.702 W004.22.20.929  
							N055.43.32.702 W004.22.20.929 N055.44.39.385 W004.26.33.144  
							N055.44.39.385 W004.26.33.144 N055.45.20.239 W004.31.02.273  
							N055.45.20.239 W004.31.02.273 N055.45.33.998 W004.35.39.998  
							N055.41.07.000 W004.54.25.000 N055.30.22.000 W004.34.38.000  
							N055.30.22.000 W004.34.38.000 N055.23.03.000 W004.58.27.000  
							N055.24.11.000 W004.59.30.000 N055.38.37.000 W004.57.58.000  
							N055.38.17.000 W004.15.34.000 N055.38.14.000 W004.12.58.000  
							N055.37.44.000 W004.12.28.000 N055.30.22.000 W004.34.38.000   
							N055.30.22.000 W004.34.38.000 N055.41.07.000 W004.54.25.000  
							N055.16.18.000 W004.27.42.000 N055.21.17.000 W004.14.59.000  
							N055.42.41.000 W004.20.08.000 N055.41.48.147 W004.20.40.537  
							N055.41.48.147 W004.20.40.537 N055.41.16.887 W004.20.45.319  
							N055.41.16.887 W004.20.45.319 N055.40.45.633 W004.20.40.398  
							N055.40.45.633 W004.20.40.398 N055.40.15.336 W004.20.25.930  
							N055.40.15.336 W004.20.25.930 N055.39.46.915 W004.20.02.361  
							N055.39.46.915 W004.20.02.361 N055.39.21.232 W004.19.30.411  
							N055.39.21.232 W004.19.30.411 N055.38.59.066 W004.18.51.053  
							N055.38.59.066 W004.18.51.053 N055.38.41.088 W004.18.05.482  
							N055.38.41.088 W004.18.05.482 N055.38.27.843 W004.17.15.082  
							N055.38.27.843 W004.17.15.082 N055.38.19.733 W004.16.21.379
							N055.38.19.733 W004.16.21.379 N055.38.17.002 W004.15.25.999  
							N055.38.17.002 W004.15.25.999 N055.38.14.000 W004.12.58.000