EGPD Aberdeen SMAA                  S999.00.00.000 E999.00.00.000 S999.00.00.000 E999.00.00.000
							N057.28.33.998 W002.16.01.999 N057.28.24.842 W002.19.15.771
							N057.28.24.842 W002.19.15.771 N057.27.57.654 W002.22.23.576
							N057.27.57.654 W002.22.23.576 N057.27.13.272 W002.25.19.639
							N057.27.13.272 W002.25.19.639 N057.26.13.061 W002.27.58.561
							N057.26.13.061 W002.27.58.561 N057.24.58.870 W002.30.15.484
							N057.24.58.870 W002.30.15.484 N057.23.32.976 W002.32.06.250
							N057.23.32.976 W002.32.06.250 N057.21.58.008 W002.33.27.521
							N057.21.58.008 W002.33.27.521 N057.20.16.867 W002.34.16.879
							N057.20.16.867 W002.34.16.879 N057.18.32.639 W002.34.32.894
							N057.18.32.639 W002.34.32.894 N057.16.48.492 W002.34.15.157
							N057.16.48.492 W002.34.15.157 N057.15.07.588 W002.33.24.284
							N057.21.01.000 W001.58.03.000 N057.21.58.008 W001.58.36.478
							N057.21.58.008 W001.58.36.478 N057.23.32.976 W001.59.57.749
							N057.23.32.976 W001.59.57.749 N057.24.58.870 W002.01.48.515
							N057.24.58.870 W002.01.48.515 N057.26.13.061 W002.04.05.438
							N057.26.13.061 W002.04.05.438 N057.27.13.272 W002.06.44.359
							N057.27.13.272 W002.06.44.359 N057.27.57.654 W002.09.40.422
							N057.27.57.654 W002.09.40.422 N057.28.24.842 W002.12.48.228
							N057.28.24.842 W002.12.48.228 N057.28.33.998 W002.16.01.999
							N057.21.01.000 W001.58.03.000 N057.09.03.000 W001.50.30.000
							;southern curve
							N057.02.04.598 W002.24.56.177 N057.00.29.990 W002.23.34.271
							N057.00.29.990 W002.23.34.271 N056.59.04.537 W002.21.43.563
							N056.59.04.537 W002.21.43.563 N056.57.50.817 W002.19.27.444
							N056.57.50.817 W002.19.27.444 N056.56.51.048 W002.16.50.049
							N056.56.51.048 W002.16.50.049 N056.56.07.026 W002.13.56.132
							N056.56.07.026 W002.13.56.132 N056.55.40.073 W002.10.50.929
							N056.55.40.073 W002.10.50.929 N056.55.30.998 W002.07.40.001
							N056.55.30.998 W002.07.40.001 N056.55.40.073 W002.04.29.072
							N056.55.40.073 W002.04.29.072 N056.56.07.026 W002.01.23.870
							N056.56.07.026 W002.01.23.870 N056.56.51.048 W001.58.29.953
							N056.56.51.048 W001.58.29.953 N056.57.50.817 W001.55.52.557
							N056.57.50.817 W001.55.52.557 N056.59.04.537 W001.53.36.438
							N056.59.04.537 W001.53.36.438 N057.00.29.990 W001.51.45.731
							N057.00.29.990 W001.51.45.731 N057.02.04.598 W001.50.23.824
							N057.02.04.598 W001.50.23.824 N057.03.45.503 W001.49.33.257
							N057.03.45.503 W001.49.33.257 N057.05.29.650 W001.49.15.631
							N057.05.29.650 W001.49.15.631 N057.07.13.878 W001.49.31.559
							N057.07.13.878 W001.49.31.559 N057.09.03.000 W001.50.30.000
							N057.02.04.598 W002.24.56.177 N057.15.07.588 W002.33.24.284
							;line through the middle
							N056.58.10.000 W001.55.18.000 N057.18.34.000 W002.16.02.000
							N057.18.34.000 W002.16.02.000 N057.28.23.000 W002.19.53.000
							N057.28.23.000 W002.19.53.000 N057.18.34.000 W002.16.02.000
							N057.18.34.000 W002.16.02.000 N056.58.10.000 W001.55.18.000
							;LINE ON THE WEST SIDE
							N056.55.33.000 W002.08.35.000 N057.24.56.000 W002.30.22.000
							;ADN 14.5 radial
							N057.05.29.228 W002.27.08.843 N057.04.59.136 W002.25.08.560
							N057.04.59.136 W002.25.08.560 N057.04.20.132 W002.20.38.921
							N057.04.20.132 W002.20.38.921 N057.04.07.001 W002.16.00.998
							N057.04.07.001 W002.16.00.998 N057.04.09.142 W002.14.56.215