;EGR218
EGR218     N052.55.17.400 W003.53.13.364 N052.55.38.238 W003.53.16.387
EGR218     N052.55.38.238 W003.53.16.387 N052.55.48.458 W003.53.20.146
EGR218     N052.55.48.458 W003.53.20.146 N052.55.58.442 W003.53.25.367
EGR218     N052.55.58.442 W003.53.25.367 N052.56.08.114 W003.53.32.012
EGR218     N052.56.08.114 W003.53.32.012 N052.56.17.400 W003.53.40.029
EGR218     N052.56.17.400 W003.53.40.029 N052.56.26.229 W003.53.49.359
EGR218     N052.56.26.229 W003.53.49.359 N052.56.34.535 W003.53.59.929
EGR218     N052.56.34.535 W003.53.59.929 N052.56.42.253 W003.54.11.660
EGR218     N052.56.42.253 W003.54.11.660 N052.56.49.325 W003.54.24.461
EGR218     N052.56.49.325 W003.54.24.461 N052.56.55.698 W003.54.38.237
EGR218     N052.56.55.698 W003.54.38.237 N052.57.01.323 W003.54.52.881
EGR218     N052.57.01.323 W003.54.52.881 N052.57.06.157 W003.55.08.283
EGR218     N052.57.06.157 W003.55.08.283 N052.57.10.163 W003.55.24.325
EGR218     N052.57.10.163 W003.55.24.325 N052.57.13.311 W003.55.40.885
EGR218     N052.57.13.311 W003.55.40.885 N052.57.15.577 W003.55.57.837
EGR218     N052.57.15.577 W003.55.57.837 N052.57.16.943 W003.56.15.052
EGR218     N052.57.16.943 W003.56.15.052 N052.57.17.400 W003.56.32.399
EGR218     N052.57.17.400 W003.56.32.399 N052.57.16.943 W003.56.49.746
EGR218     N052.57.16.943 W003.56.49.746 N052.57.15.577 W003.57.06.961
EGR218     N052.57.15.577 W003.57.06.961 N052.57.13.311 W003.57.23.913
EGR218     N052.57.13.311 W003.57.23.913 N052.57.10.163 W003.57.40.473
EGR218     N052.57.10.163 W003.57.40.473 N052.57.06.157 W003.57.56.515
EGR218     N052.57.06.157 W003.57.56.515 N052.57.01.323 W003.58.11.916
EGR218     N052.57.01.323 W003.58.11.916 N052.56.55.698 W003.58.26.561
EGR218     N052.56.55.698 W003.58.26.561 N052.56.49.325 W003.58.40.336
EGR218     N052.56.49.325 W003.58.40.336 N052.56.42.253 W003.58.53.138
EGR218     N052.56.42.253 W003.58.53.138 N052.56.34.535 W003.59.04.869
EGR218     N052.56.34.535 W003.59.04.869 N052.56.26.229 W003.59.15.439
EGR218     N052.56.26.229 W003.59.15.439 N052.56.17.400 W003.59.24.768
EGR218     N052.56.17.400 W003.59.24.768 N052.56.08.114 W003.59.32.786
EGR218     N052.56.08.114 W003.59.32.786 N052.55.58.442 W003.59.39.431
EGR218     N052.55.58.442 W003.59.39.431 N052.55.48.458 W003.59.44.652
EGR218     N052.55.48.458 W003.59.44.652 N052.55.38.238 W003.59.48.410
EGR218     N052.55.38.238 W003.59.48.410 N052.55.27.859 W003.59.50.677
EGR218     N052.55.27.859 W003.59.50.677 N052.55.17.400 W003.59.51.434
EGR218     N052.55.17.400 W003.59.51.434 N052.55.06.941 W003.59.50.677
EGR218     N052.55.06.941 W003.59.50.677 N052.54.56.562 W003.59.48.410
EGR218     N052.54.56.562 W003.59.48.410 N052.54.46.342 W003.59.44.652
EGR218     N052.54.46.342 W003.59.44.652 N052.54.36.358 W003.59.39.431
EGR218     N052.54.36.358 W003.59.39.431 N052.54.26.686 W003.59.32.786
EGR218     N052.54.26.686 W003.59.32.786 N052.54.17.400 W003.59.24.768
EGR218     N052.54.17.400 W003.59.24.768 N052.54.08.571 W003.59.15.439
EGR218     N052.54.08.571 W003.59.15.439 N052.54.00.265 W003.59.04.869
EGR218     N052.54.00.265 W003.59.04.869 N052.53.52.547 W003.58.53.138
EGR218     N052.53.52.547 W003.58.53.138 N052.53.45.475 W003.58.40.336
EGR218     N052.53.45.475 W003.58.40.336 N052.53.39.102 W003.58.26.561
EGR218     N052.53.39.102 W003.58.26.561 N052.53.33.477 W003.58.11.916
EGR218     N052.53.33.477 W003.58.11.916 N052.53.28.643 W003.57.56.515
EGR218     N052.53.28.643 W003.57.56.515 N052.53.24.637 W003.57.40.473
EGR218     N052.53.24.637 W003.57.40.473 N052.53.21.489 W003.57.23.913
EGR218     N052.53.21.489 W003.57.23.913 N052.53.19.223 W003.57.06.961
EGR218     N052.53.19.223 W003.57.06.961 N052.53.17.857 W003.56.49.746
EGR218     N052.53.17.857 W003.56.49.746 N052.53.17.400 W003.56.32.399
EGR218     N052.53.17.400 W003.56.32.399 N052.53.17.857 W003.56.15.052
EGR218     N052.53.17.857 W003.56.15.052 N052.53.19.223 W003.55.57.837
EGR218     N052.53.19.223 W003.55.57.837 N052.53.21.489 W003.55.40.885
EGR218     N052.53.21.489 W003.55.40.885 N052.53.24.637 W003.55.24.325
EGR218     N052.53.24.637 W003.55.24.325 N052.53.28.643 W003.55.08.283
EGR218     N052.53.28.643 W003.55.08.283 N052.53.33.477 W003.54.52.881
EGR218     N052.53.33.477 W003.54.52.881 N052.53.39.102 W003.54.38.237
EGR218     N052.53.39.102 W003.54.38.237 N052.53.45.475 W003.54.24.461
EGR218     N052.53.45.475 W003.54.24.461 N052.53.52.547 W003.54.11.660
EGR218     N052.53.52.547 W003.54.11.660 N052.54.00.265 W003.53.59.929
EGR218     N052.54.00.265 W003.53.59.929 N052.54.08.571 W003.53.49.359
EGR218     N052.54.08.571 W003.53.49.359 N052.54.17.400 W003.53.40.029
EGR218     N052.54.17.400 W003.53.40.029 N052.54.26.686 W003.53.32.012
EGR218     N052.54.26.686 W003.53.32.012 N052.54.36.358 W003.53.25.367
EGR218     N052.54.36.358 W003.53.25.367 N052.54.46.342 W003.53.20.146
EGR218     N052.54.46.342 W003.53.20.146 N052.54.56.562 W003.53.16.387
EGR218     N052.54.56.562 W003.53.16.387 N052.55.06.941 W003.53.14.121
EGR218     N052.55.06.941 W003.53.14.121 N052.55.17.400 W003.53.13.364
EGR218     N052.55.17.400 W003.53.13.364 N052.55.17.400 W003.53.13.364