;EGR501
EGR501     N055.00.59.000 W003.10.04.700 N055.01.19.838 W003.10.07.880
EGR501     N055.01.19.838 W003.10.07.880 N055.01.30.059 W003.10.11.832
EGR501     N055.01.30.059 W003.10.11.832 N055.01.40.043 W003.10.17.323
EGR501     N055.01.40.043 W003.10.17.323 N055.01.49.715 W003.10.24.310
EGR501     N055.01.49.715 W003.10.24.310 N055.01.59.000 W003.10.32.741
EGR501     N055.01.59.000 W003.10.32.741 N055.02.07.830 W003.10.42.552
EGR501     N055.02.07.830 W003.10.42.552 N055.02.16.135 W003.10.53.667
EGR501     N055.02.16.135 W003.10.53.667 N055.02.23.853 W003.11.06.003
EGR501     N055.02.23.853 W003.11.06.003 N055.02.30.926 W003.11.19.465
EGR501     N055.02.30.926 W003.11.19.465 N055.02.37.299 W003.11.33.951
EGR501     N055.02.37.299 W003.11.33.951 N055.02.42.923 W003.11.49.350
EGR501     N055.02.42.923 W003.11.49.350 N055.02.47.757 W003.12.05.546
EGR501     N055.02.47.757 W003.12.05.546 N055.02.51.764 W003.12.22.415
EGR501     N055.02.51.764 W003.12.22.415 N055.02.54.911 W003.12.39.829
EGR501     N055.02.54.911 W003.12.39.829 N055.02.57.177 W003.12.57.655
EGR501     N055.02.57.177 W003.12.57.655 N055.02.58.544 W003.13.15.758
EGR501     N055.02.58.544 W003.13.15.758 N055.02.59.000 W003.13.34.000
EGR501     N055.02.59.000 W003.13.34.000 N055.02.58.544 W003.13.52.241
EGR501     N055.02.58.544 W003.13.52.241 N055.02.57.177 W003.14.10.344
EGR501     N055.02.57.177 W003.14.10.344 N055.02.54.911 W003.14.28.170
EGR501     N055.02.54.911 W003.14.28.170 N055.02.51.764 W003.14.45.584
EGR501     N055.02.51.764 W003.14.45.584 N055.02.47.757 W003.15.02.453
EGR501     N055.02.47.757 W003.15.02.453 N055.02.42.923 W003.15.18.649
EGR501     N055.02.42.923 W003.15.18.649 N055.02.37.299 W003.15.34.049
EGR501     N055.02.37.299 W003.15.34.049 N055.02.30.926 W003.15.48.534
EGR501     N055.02.30.926 W003.15.48.534 N055.02.23.853 W003.16.01.996
EGR501     N055.02.23.853 W003.16.01.996 N055.02.16.135 W003.16.14.332
EGR501     N055.02.16.135 W003.16.14.332 N055.02.07.830 W003.16.25.447
EGR501     N055.02.07.830 W003.16.25.447 N055.01.59.000 W003.16.35.258
EGR501     N055.01.59.000 W003.16.35.258 N055.01.49.715 W003.16.43.689
EGR501     N055.01.49.715 W003.16.43.689 N055.01.40.043 W003.16.50.676
EGR501     N055.01.40.043 W003.16.50.676 N055.01.30.059 W003.16.56.167
EGR501     N055.01.30.059 W003.16.56.167 N055.01.19.838 W003.17.00.119
EGR501     N055.01.19.838 W003.17.00.119 N055.01.09.459 W003.17.02.502
EGR501     N055.01.09.459 W003.17.02.502 N055.00.59.000 W003.17.03.299
EGR501     N055.00.59.000 W003.17.03.299 N055.00.48.542 W003.17.02.502
EGR501     N055.00.48.542 W003.17.02.502 N055.00.38.163 W003.17.00.119
EGR501     N055.00.38.163 W003.17.00.119 N055.00.27.942 W003.16.56.167
EGR501     N055.00.27.942 W003.16.56.167 N055.00.17.958 W003.16.50.676
EGR501     N055.00.17.958 W003.16.50.676 N055.00.08.286 W003.16.43.689
EGR501     N055.00.08.286 W003.16.43.689 N054.59.59.000 W003.16.35.258
EGR501     N054.59.59.000 W003.16.35.258 N054.59.50.171 W003.16.25.447
EGR501     N054.59.50.171 W003.16.25.447 N054.59.41.866 W003.16.14.332
EGR501     N054.59.41.866 W003.16.14.332 N054.59.34.148 W003.16.01.996
EGR501     N054.59.34.148 W003.16.01.996 N054.59.27.075 W003.15.48.534
EGR501     N054.59.27.075 W003.15.48.534 N054.59.20.702 W003.15.34.049
EGR501     N054.59.20.702 W003.15.34.049 N054.59.15.077 W003.15.18.649
EGR501     N054.59.15.077 W003.15.18.649 N054.59.10.243 W003.15.02.453
EGR501     N054.59.10.243 W003.15.02.453 N054.59.06.237 W003.14.45.584
EGR501     N054.59.06.237 W003.14.45.584 N054.59.03.089 W003.14.28.170
EGR501     N054.59.03.089 W003.14.28.170 N054.59.00.823 W003.14.10.344
EGR501     N054.59.00.823 W003.14.10.344 N054.58.59.457 W003.13.52.241
EGR501     N054.58.59.457 W003.13.52.241 N054.58.59.000 W003.13.34.000
EGR501     N054.58.59.000 W003.13.34.000 N054.58.59.457 W003.13.15.758
EGR501     N054.58.59.457 W003.13.15.758 N054.59.00.823 W003.12.57.655
EGR501     N054.59.00.823 W003.12.57.655 N054.59.03.089 W003.12.39.829
EGR501     N054.59.03.089 W003.12.39.829 N054.59.06.237 W003.12.22.415
EGR501     N054.59.06.237 W003.12.22.415 N054.59.10.243 W003.12.05.546
EGR501     N054.59.10.243 W003.12.05.546 N054.59.15.077 W003.11.49.350
EGR501     N054.59.15.077 W003.11.49.350 N054.59.20.702 W003.11.33.951
EGR501     N054.59.20.702 W003.11.33.951 N054.59.27.075 W003.11.19.465
EGR501     N054.59.27.075 W003.11.19.465 N054.59.34.148 W003.11.06.003
EGR501     N054.59.34.148 W003.11.06.003 N054.59.41.866 W003.10.53.667
EGR501     N054.59.41.866 W003.10.53.667 N054.59.50.171 W003.10.42.552
EGR501     N054.59.50.171 W003.10.42.552 N054.59.59.000 W003.10.32.741
EGR501     N054.59.59.000 W003.10.32.741 N055.00.08.286 W003.10.24.310
EGR501     N055.00.08.286 W003.10.24.310 N055.00.17.958 W003.10.17.323
EGR501     N055.00.17.958 W003.10.17.323 N055.00.27.942 W003.10.11.832
EGR501     N055.00.27.942 W003.10.11.832 N055.00.38.163 W003.10.07.880
EGR501     N055.00.38.163 W003.10.07.880 N055.00.48.542 W003.10.05.497
EGR501     N055.00.48.542 W003.10.05.497 N055.00.59.000 W003.10.04.700
EGR501     N055.00.59.000 W003.10.04.700 N055.00.59.000 W003.10.04.700