;EGR156
EGR156     N051.44.31.999 E000.57.05.799 N051.44.52.837 E000.57.02.855
EGR156     N051.44.52.837 E000.57.02.855 N051.45.03.057 E000.56.59.196
EGR156     N051.45.03.057 E000.56.59.196 N051.45.13.042 E000.56.54.112
EGR156     N051.45.13.042 E000.56.54.112 N051.45.22.713 E000.56.47.642
EGR156     N051.45.22.713 E000.56.47.642 N051.45.31.999 E000.56.39.835
EGR156     N051.45.31.999 E000.56.39.835 N051.45.40.828 E000.56.30.751
EGR156     N051.45.40.828 E000.56.30.751 N051.45.49.134 E000.56.20.459
EGR156     N051.45.49.134 E000.56.20.459 N051.45.56.852 E000.56.09.037
EGR156     N051.45.56.852 E000.56.09.037 N051.46.03.925 E000.55.56.572
EGR156     N051.46.03.925 E000.55.56.572 N051.46.10.297 E000.55.43.159
EGR156     N051.46.10.297 E000.55.43.159 N051.46.15.922 E000.55.28.900
EGR156     N051.46.15.922 E000.55.28.900 N051.46.20.756 E000.55.13.903
EGR156     N051.46.20.756 E000.55.13.903 N051.46.24.762 E000.54.58.284
EGR156     N051.46.24.762 E000.54.58.284 N051.46.27.910 E000.54.42.159
EGR156     N051.46.27.910 E000.54.42.159 N051.46.30.176 E000.54.25.654
EGR156     N051.46.30.176 E000.54.25.654 N051.46.31.543 E000.54.08.891
EGR156     N051.46.31.543 E000.54.08.891 N051.46.31.999 E000.53.52.001
EGR156     N051.46.31.999 E000.53.52.001 N051.46.31.543 E000.53.35.110
EGR156     N051.46.31.543 E000.53.35.110 N051.46.30.176 E000.53.18.348
EGR156     N051.46.30.176 E000.53.18.348 N051.46.27.910 E000.53.01.842
EGR156     N051.46.27.910 E000.53.01.842 N051.46.24.762 E000.52.45.718
EGR156     N051.46.24.762 E000.52.45.718 N051.46.20.756 E000.52.30.098
EGR156     N051.46.20.756 E000.52.30.098 N051.46.15.922 E000.52.15.102
EGR156     N051.46.15.922 E000.52.15.102 N051.46.10.297 E000.52.00.843
EGR156     N051.46.10.297 E000.52.00.843 N051.46.03.925 E000.51.47.430
EGR156     N051.46.03.925 E000.51.47.430 N051.45.56.852 E000.51.34.965
EGR156     N051.45.56.852 E000.51.34.965 N051.45.49.134 E000.51.23.543
EGR156     N051.45.49.134 E000.51.23.543 N051.45.40.828 E000.51.13.251
EGR156     N051.45.40.828 E000.51.13.251 N051.45.31.999 E000.51.04.167
EGR156     N051.45.31.999 E000.51.04.167 N051.45.22.713 E000.50.56.360
EGR156     N051.45.22.713 E000.50.56.360 N051.45.13.042 E000.50.49.890
EGR156     N051.45.13.042 E000.50.49.890 N051.45.03.057 E000.50.44.806
EGR156     N051.45.03.057 E000.50.44.806 N051.44.52.837 E000.50.41.147
EGR156     N051.44.52.837 E000.50.41.147 N051.44.42.458 E000.50.38.940
EGR156     N051.44.42.458 E000.50.38.940 N051.44.31.999 E000.50.38.203
EGR156     N051.44.31.999 E000.50.38.203 N051.44.21.541 E000.50.38.940
EGR156     N051.44.21.541 E000.50.38.940 N051.44.11.161 E000.50.41.147
EGR156     N051.44.11.161 E000.50.41.147 N051.44.00.941 E000.50.44.806
EGR156     N051.44.00.941 E000.50.44.806 N051.43.50.957 E000.50.49.890
EGR156     N051.43.50.957 E000.50.49.890 N051.43.41.285 E000.50.56.360
EGR156     N051.43.41.285 E000.50.56.360 N051.43.31.999 E000.51.04.167
EGR156     N051.43.31.999 E000.51.04.167 N051.43.23.170 E000.51.13.251
EGR156     N051.43.23.170 E000.51.13.251 N051.43.14.865 E000.51.23.543
EGR156     N051.43.14.865 E000.51.23.543 N051.43.07.146 E000.51.34.965
EGR156     N051.43.07.146 E000.51.34.965 N051.43.00.074 E000.51.47.430
EGR156     N051.43.00.074 E000.51.47.430 N051.42.53.701 E000.52.00.843
EGR156     N051.42.53.701 E000.52.00.843 N051.42.48.076 E000.52.15.102
EGR156     N051.42.48.076 E000.52.15.102 N051.42.43.242 E000.52.30.098
EGR156     N051.42.43.242 E000.52.30.098 N051.42.39.236 E000.52.45.718
EGR156     N051.42.39.236 E000.52.45.718 N051.42.36.088 E000.53.01.842
EGR156     N051.42.36.088 E000.53.01.842 N051.42.33.822 E000.53.18.348
EGR156     N051.42.33.822 E000.53.18.348 N051.42.32.456 E000.53.35.110
EGR156     N051.42.32.456 E000.53.35.110 N051.42.31.999 E000.53.52.001
EGR156     N051.42.31.999 E000.53.52.001 N051.42.32.456 E000.54.08.891
EGR156     N051.42.32.456 E000.54.08.891 N051.42.33.822 E000.54.25.654
EGR156     N051.42.33.822 E000.54.25.654 N051.42.36.088 E000.54.42.159
EGR156     N051.42.36.088 E000.54.42.159 N051.42.39.236 E000.54.58.284
EGR156     N051.42.39.236 E000.54.58.284 N051.42.43.242 E000.55.13.903
EGR156     N051.42.43.242 E000.55.13.903 N051.42.48.076 E000.55.28.900
EGR156     N051.42.48.076 E000.55.28.900 N051.42.53.701 E000.55.43.159
EGR156     N051.42.53.701 E000.55.43.159 N051.43.00.074 E000.55.56.572
EGR156     N051.43.00.074 E000.55.56.572 N051.43.07.146 E000.56.09.037
EGR156     N051.43.07.146 E000.56.09.037 N051.43.14.865 E000.56.20.459
EGR156     N051.43.14.865 E000.56.20.459 N051.43.23.170 E000.56.30.751
EGR156     N051.43.23.170 E000.56.30.751 N051.43.31.999 E000.56.39.835
EGR156     N051.43.31.999 E000.56.39.835 N051.43.41.285 E000.56.47.642
EGR156     N051.43.41.285 E000.56.47.642 N051.43.50.957 E000.56.54.112
EGR156     N051.43.50.957 E000.56.54.112 N051.44.00.941 E000.56.59.196
EGR156     N051.44.00.941 E000.56.59.196 N051.44.11.161 E000.57.02.855
EGR156     N051.44.11.161 E000.57.02.855 N051.44.21.541 E000.57.05.062
EGR156     N051.44.21.541 E000.57.05.062 N051.44.31.999 E000.57.05.799
EGR156     N051.44.31.999 E000.57.05.799 N051.44.31.999 E000.57.05.799