London AC Daventry        S999.00.00.000 E999.00.00.000 S999.00.00.000 E999.00.00.000
                          N052.50.45.000 W002.45.29.000 N053.10.29.000 W002.05.57.000
                          N053.10.29.000 W002.05.57.000 N053.12.25.000 W001.58.44.000
                          N053.12.25.000 W001.58.44.000 N053.00.31.000 W001.47.37.000
                          N053.00.31.000 W001.47.37.000 N053.10.17.000 W001.20.43.000
                          N053.10.17.000 W001.20.43.000 N053.06.42.000 W000.46.27.000
                          N053.06.42.000 W000.46.27.000 N052.26.26.000 W000.10.12.000
                          N052.26.26.000 W000.10.12.000 N052.26.15.000 E000.13.48.000
                          N052.26.15.000 E000.13.48.000 N052.19.06.000 W000.03.44.000
                          N052.19.06.000 W000.03.44.000 N052.11.04.000 E000.05.28.000
                          N052.11.04.000 E000.05.28.000 N052.11.04.000 W000.21.59.000
                          N052.11.04.000 W000.21.59.000 N051.56.19.000 W000.07.48.000
                          N051.56.19.000 W000.07.48.000 N051.48.04.000 W000.11.14.000
                          N051.48.04.000 W000.11.14.000 N051.34.23.000 W001.11.38.000
                          N051.34.23.000 W001.11.38.000 N051.39.43.000 W001.26.46.000
                          N051.39.43.000 W001.26.46.000 N051.40.55.000 W001.34.58.000
                          N051.40.55.000 W001.34.58.000 N051.42.11.000 W001.35.37.000
                          N051.42.11.000 W001.35.37.000 N052.09.16.000 W002.04.28.000
						  N052.09.16.000 W002.04.28.000 N052.16.28.100 W002.12.18.500
						  N052.16.28.100 W002.12.18.500 N052.32.53.000 W002.30.11.000
						  N052.32.53.000 W002.30.11.000 N052.41.49.000 W002.37.50.000
						  N052.41.49.000 W002.37.50.000 N052.50.46.000 W002.45.29.000
						  N052.41.49.000 W002.37.50.000 N053.00.31.000 W001.47.37.000	;LCM10
						  N052.16.28.100 W002.12.18.500 N052.32.59.000 W001.30.25.000	;LCM1
						  N052.32.59.000 W001.30.25.000 N052.46.16.000 W000.56.31.000	;LCM2
						  N052.40.06.000 W001.32.49.000 N052.32.59.000 W001.30.25.000	;LCM3
						  N052.40.06.000 W001.32.49.000 N052.48.06.000 W000.58.21.000	;LCM4
						  N052.49.38.000 W001.30.20.000 N052.40.06.000 W001.32.49.000	;LCM5
						  N052.49.38.000 W001.30.20.000 N052.50.17.000 W001.00.38.000	;LCM6
						  N052.48.06.000 W000.58.21.000 N052.46.16.000 W000.56.31.000	;LCM7
						  N052.50.17.000 W001.00.38.000 N052.48.06.000 W000.58.21.000	;LCM8
						  N053.10.17.000 W001.20.43.000 N052.50.17.000 W001.00.38.000	;LCM9
						  N051.39.43.000 W001.26.46.000 N051.43.19.000 W001.28.37.000	;LTC1
						  N051.43.19.000 W001.28.37.000 N051.54.21.000 W001.02.57.000
						  N051.54.21.000 W001.02.57.000 N051.58.59.000 W000.52.02.000
						  N051.58.59.000 W000.52.02.000 N052.11.04.000 W000.21.59.000