EGQS Lossiemouth LARS               S999.00.00.000 E999.00.00.000 S999.00.00.000 E999.00.00.000
							N058.21.49.539 W003.07.54.549 N058.20.01.262 W002.56.01.444							
							N058.20.01.262 W002.56.01.444 N058.17.04.461 W002.44.52.353							
							N058.17.04.461 W002.44.52.353 N058.13.04.507 W002.34.47.605							
							N058.13.04.507 W002.34.47.605 N058.08.08.690 W002.26.05.576							
							N058.08.08.690 W002.26.05.576 N058.02.26.000 W002.19.02.128							
							N058.02.26.000 W002.19.02.128 N057.56.06.848 W002.13.50.125							
							N057.56.06.848 W002.13.50.125 N057.49.22.756 W002.10.39.050							
							N057.49.22.756 W002.10.39.050 N057.42.26.000 W002.09.34.706							
							N057.42.26.000 W002.09.34.706 N057.35.29.244 W002.10.39.050							
							N057.35.29.244 W002.10.39.050 N057.28.45.152 W002.13.50.125							
							N057.28.45.152 W002.13.50.125 N057.22.26.000 W002.19.02.128							
							N057.22.26.000 W002.19.02.128 N057.16.43.310 W002.26.05.576							
							N057.16.43.310 W002.26.05.576 N057.11.47.493 W002.34.47.605							
							N057.11.47.493 W002.34.47.605 N057.07.47.539 W002.44.52.353							
							N057.07.47.539 W002.44.52.353 N057.04.50.738 W002.56.01.444							
							N057.04.50.738 W002.56.01.444 N057.03.02.461 W003.07.54.549							
							N057.03.02.461 W003.07.54.549 N057.02.26.000 W003.20.10.000							
							N057.02.26.000 W003.20.10.000 N057.03.02.461 W003.32.25.451							
							N057.03.02.461 W003.32.25.451 N057.04.50.738 W003.44.18.556							
							N057.04.50.738 W003.44.18.556 N057.07.47.539 W003.55.27.647							
							N057.07.47.539 W003.55.27.647 N057.11.47.493 W004.05.32.395							
							N057.11.47.493 W004.05.32.395 N057.16.43.310 W004.14.14.424							
							N057.16.43.310 W004.14.14.424 N057.22.26.000 W004.21.17.872							
							N057.22.26.000 W004.21.17.872 N057.28.45.152 W004.26.29.875							
							N057.28.45.152 W004.26.29.875 N057.35.29.244 W004.29.40.950							
							N057.35.29.244 W004.29.40.950 N057.42.26.000 W004.30.45.294							
							N057.42.26.000 W004.30.45.294 N057.49.22.756 W004.29.40.950							
							N057.49.22.756 W004.29.40.950 N057.56.06.848 W004.26.29.875							
							N057.56.06.848 W004.26.29.875 N058.02.26.000 W004.21.17.872							
							N058.02.26.000 W004.21.17.872 N058.08.08.690 W004.14.14.424							
							N058.08.08.690 W004.14.14.424 N058.13.04.507 W004.05.32.395							
							N058.13.04.507 W004.05.32.395 N058.17.04.461 W003.55.27.647							
							N058.17.04.461 W003.55.27.647 N058.20.01.262 W003.44.18.556							
							N058.20.01.262 W003.44.18.556 N058.21.49.539 W003.32.25.451							
							N058.21.49.539 W003.32.25.451 N058.22.26.000 W003.20.10.000							
							N058.22.26.000 W003.20.10.000 N058.21.49.539 W003.07.54.549							